<?xml version="1.0" standalone="no"?>
<!DOCTYPE svg PUBLIC "-//W3C//DTD SVG 1.1//EN" "http://www.w3.org/Graphics/SVG/1.1/DTD/svg11.dtd" >
<svg xmlns="http://www.w3.org/2000/svg" xmlns:xlink="http://www.w3.org/1999/xlink" version="1.1">
<metadata></metadata>
<defs>
<font id="tex_gyre_adventorbold" horiz-adv-x="1146" >
<font-face units-per-em="2048" ascent="1669" descent="-379" />
<missing-glyph horiz-adv-x="573" />
<glyph unicode="&#xfb01;" horiz-adv-x="1064" d="M20 887v227h99q22 213 119.5 306t255.5 93q34 0 67 -4v-258h-26q-79 0 -110.5 -30t-33.5 -107h154v-227h-154v-887h-272v887h-99zM684 0v1135h272v-1135h-272zM686 1298v273h272v-273h-272z" />
<glyph unicode="&#xfb02;" horiz-adv-x="1064" d="M20 887v227h99q22 213 119.5 306t255.5 93q34 0 67 -4v-258h-26q-79 0 -110.5 -30t-33.5 -107h154v-227h-154v-887h-272v887h-99zM684 0v1513h272v-1513h-272z" />
<glyph unicode="&#xfb04;" horiz-adv-x="1630" d="M20 887v227h99q22 213 119.5 306t255.5 93q34 0 67 -4v-258h-26q-79 0 -110.5 -30t-33.5 -107h293q22 213 119.5 306t255.5 93q34 0 67 -4v-258h-26q-79 0 -110.5 -30t-33.5 -107h154v-227h-154v-887h-272v887h-293v-887h-272v887h-99zM1249 0v1513h273v-1513h-273z" />
<glyph horiz-adv-x="0" />
<glyph horiz-adv-x="682" />
<glyph unicode=" "  horiz-adv-x="573" />
<glyph unicode="&#x09;" horiz-adv-x="573" />
<glyph unicode="&#xa0;" horiz-adv-x="573" />
<glyph unicode="!" horiz-adv-x="573" d="M147 0v262h273v-262h-273zM147 385v1128h273v-1128h-273z" />
<glyph unicode="&#x22;" horiz-adv-x="737" d="M152 1051v462h155v-462h-155zM424 1051v462h156v-462h-156z" />
<glyph unicode="#" d="M70 477v205h225l24 182h-196v203h225l60 446h184l-60 -446h179l59 446h184l-59 -446h182v-203h-211l-24 -182h182v-205h-209l-65 -477h-185l66 477h-178l-64 -477h-186l65 477h-198zM479 682h178l25 182h-176z" />
<glyph unicode="$" d="M121 483v27h274q5 -80 52 -128t120 -48t122.5 49t49.5 121q0 49 -18.5 82t-61.5 61q-29 18 -57.5 30.5t-157.5 61.5q-264 96 -264 369q0 138 69 240t202 133v272h260v-272q104 -20 176.5 -121t77.5 -232h-258q-12 61 -46.5 94t-87.5 33q-52 0 -86 -37t-34 -94 q0 -50 16.5 -79t65 -57.5t151.5 -67.5q188 -65 257 -152.5t69 -253.5q0 -158 -79.5 -269t-221.5 -151v-270h-260v270q-153 42 -241.5 149t-88.5 240z" />
<glyph unicode="%" horiz-adv-x="1761" d="M43 1169q0 155 108 263t265 108q151 0 259.5 -109t108.5 -260q0 -154 -108 -262t-262 -108t-262.5 108t-108.5 260zM264 1171q0 -63 44 -107t106 -44t106.5 45t44.5 106q0 62 -45 107t-106 45q-62 0 -106 -44.5t-44 -107.5zM457 0l624 1513h211l-626 -1513h-209zM969 342 q0 156 107.5 263.5t264.5 107.5q151 0 260 -109t109 -260q0 -154 -108.5 -262.5t-262.5 -108.5q-153 0 -261.5 108.5t-108.5 260.5zM1190 344q0 -63 43.5 -107t105.5 -44t107 45t45 106q0 62 -45.5 107t-106.5 45q-62 0 -105.5 -44.5t-43.5 -107.5z" />
<glyph unicode="&#x26;" horiz-adv-x="1392" d="M72 457q0 138 67 240t215 190q-75 84 -101 140.5t-26 137.5q0 159 110.5 267t272.5 108q166 0 277.5 -106.5t111.5 -266.5q0 -124 -50.5 -203.5t-186.5 -166.5l137 -154l148 244h305l-262 -449l270 -288l-195 -177l-215 228q-97 -129 -180.5 -178.5t-204.5 -49.5 q-102 0 -193.5 38t-157 102.5t-104 154t-38.5 189.5zM344 440q0 -85 58 -140.5t147 -55.5q68 0 114.5 35t98.5 127l-236 253q-95 -43 -138.5 -95t-43.5 -124zM487 1161q0 -41 22.5 -79.5t82.5 -96.5q87 46 117 81.5t30 92.5q0 55 -34.5 90t-90.5 35q-54 0 -90.5 -35.5 t-36.5 -87.5z" />
<glyph unicode="'" horiz-adv-x="450" d="M152 1051v462h155v-462h-155z" />
<glyph unicode="(" horiz-adv-x="778" d="M152 614q0 302 152.5 547t410.5 352v-294q-139 -107 -213 -263t-74 -342q0 -180 80.5 -348t206.5 -250v-297q-165 58 -294.5 198.5t-199 323.5t-69.5 373z" />
<glyph unicode=")" horiz-adv-x="778" d="M76 14q139 107 212.5 262.5t73.5 341.5q0 181 -80 349t-206 250v296q124 -44 230 -137t178.5 -213t113.5 -262t41 -283q0 -302 -152.5 -547t-410.5 -352v295z" />
<glyph unicode="*" horiz-adv-x="901" d="M143 1135v145l203 -10l-108 176l129 65l90 -176l94 178l121 -73l-111 -170l199 12v-147l-199 10l109 -164l-117 -78l-96 180l-88 -180l-131 64l106 182z" />
<glyph unicode="+" horiz-adv-x="1228" d="M111 371v282h362v363h283v-363h362v-282h-362v-363h-283v363h-362z" />
<glyph unicode="," horiz-adv-x="573" d="M147 0v262h273v-276q0 -123 -71 -198t-202 -75v137q65 12 93 39t28 76q0 23 -2 35h-119z" />
<glyph unicode="-" horiz-adv-x="860" d="M152 469v242h567v-242h-567z" />
<glyph unicode="." horiz-adv-x="573" d="M147 0v262h273v-262h-273z" />
<glyph unicode="/" horiz-adv-x="942" d="M53 -262l662 1775h192l-661 -1775h-193z" />
<glyph unicode="0" d="M61 506v514q0 239 137.5 379.5t370.5 140.5q230 0 368 -138t138 -368v-528q0 -252 -133.5 -392.5t-359.5 -140.5q-237 0 -379 141t-142 392zM334 514q0 -141 61 -216t178 -75q111 0 170.5 71t59.5 214v512q0 130 -60.5 200t-171.5 70q-110 0 -173.5 -72t-63.5 -198v-506z " />
<glyph unicode="1" d="M313 1257v256h463v-1513h-272v1257h-191z" />
<glyph unicode="2" d="M70 991q0 256 139 402.5t362 146.5q211 0 352.5 -141t141.5 -350q0 -141 -61.5 -249.5t-231.5 -262.5l-309 -281h596v-256h-979v240l538 510q93 88 134 159t41 144q0 101 -63 169t-157 68q-106 0 -170.5 -82t-64.5 -217h-268z" />
<glyph unicode="3" d="M31 459h274q13 -107 80.5 -171.5t165.5 -64.5q103 0 170 71.5t67 180.5q0 116 -80.5 185t-215.5 69h-46v262q127 3 180.5 40t53.5 116q0 63 -37 103t-96 40q-110 0 -127 -137h-277q15 186 126 286.5t276 100.5q175 0 291 -116t116 -291q0 -88 -30.5 -151t-96.5 -110 q236 -106 236 -391q0 -220 -144 -364t-364 -144q-218 0 -364 136t-158 350z" />
<glyph unicode="4" d="M0 227v222l696 1064h230v-1042h159v-244h-159v-227h-273v227h-653zM276 471h377v584z" />
<glyph unicode="5" d="M25 453h272q20 -110 84 -170t162 -60q110 0 180 78t70 201q0 115 -71 192.5t-175 77.5q-65 0 -112.5 -26t-98.5 -89l-242 66l142 790h684v-256h-480l-49 -278q102 43 195 43q207 0 343 -146.5t136 -369.5q0 -149 -67 -271.5t-185 -192t-262 -69.5q-133 0 -251 61 t-193 172t-82 247z" />
<glyph unicode="6" d="M43 496q0 109 34 205t116 219l395 593h325l-362 -538q61 20 123 20q181 0 299.5 -136t118.5 -343q0 -236 -146.5 -389.5t-372.5 -153.5q-228 0 -379 149t-151 374zM315 489q0 -117 72.5 -191.5t185.5 -74.5q109 0 177.5 74t68.5 192q0 117 -71 193t-179 76 q-114 0 -184 -74.5t-70 -194.5z" />
<glyph unicode="7" d="M133 1257v256h891v-256l-553 -1257h-307l573 1257h-604z" />
<glyph unicode="8" d="M63 473q0 124 51.5 214.5t166.5 154.5q-70 75 -97.5 137t-27.5 145q0 173 121 294.5t294 121.5q178 0 296 -117.5t118 -294.5q0 -183 -127 -286q113 -68 163 -154t50 -213q0 -215 -143.5 -358.5t-358.5 -143.5q-214 0 -360 144t-146 356zM336 463q0 -101 67.5 -170.5 t167.5 -69.5q97 0 162.5 68.5t65.5 169.5q0 98 -67 167.5t-161 69.5q-99 0 -167 -68t-68 -167zM416 1124q0 -68 45.5 -115.5t109.5 -47.5q63 0 108.5 48t45.5 117t-44.5 116.5t-107.5 47.5q-67 0 -112 -47.5t-45 -118.5z" />
<glyph unicode="9" d="M45 997q0 236 145 389.5t369 153.5q229 0 380 -149t151 -375q0 -109 -34 -204.5t-116 -217.5l-395 -594h-326l365 539q-68 -25 -123 -25q-177 0 -296.5 138.5t-119.5 344.5zM317 1024q0 -117 70.5 -192.5t177.5 -75.5q112 0 182 74.5t70 193.5q0 117 -72.5 191.5 t-185.5 74.5q-107 0 -174.5 -74.5t-67.5 -191.5z" />
<glyph unicode=":" horiz-adv-x="573" d="M147 0v262h273v-262h-273zM147 756v272h273v-272h-273z" />
<glyph unicode=";" horiz-adv-x="573" d="M147 0v262h273v-276q0 -125 -73.5 -199t-199.5 -74v137q65 12 93 39t28 76v35h-121zM147 756v272h273v-272h-273z" />
<glyph unicode="&#x3c;" horiz-adv-x="1228" d="M133 401v222l875 692v-361l-559 -442l559 -442v-361z" />
<glyph unicode="=" horiz-adv-x="1228" d="M111 182v283h1007v-283h-1007zM111 559v283h1007v-283h-1007z" />
<glyph unicode="&#x3e;" horiz-adv-x="1228" d="M133 70l559 442l-559 442v361l875 -692v-222l-875 -692v361z" />
<glyph unicode="?" d="M66 1065q12 154 77.5 263t165 160.5t223.5 51.5q197 0 329 -134t132 -335q0 -103 -45.5 -183.5t-163.5 -182.5q-84 -73 -107.5 -130.5t-25.5 -191.5h-272q0 193 48.5 295t201.5 227q92 77 92 174q0 83 -55 137t-140 54q-83 0 -128.5 -50t-59.5 -155h-272zM379 0v262h272 v-262h-272z" />
<glyph unicode="@" horiz-adv-x="1515" d="M6 772q0 167 60.5 315t165 253.5t251 167t312.5 61.5q161 0 296.5 -53.5t231.5 -150.5t149.5 -239t53.5 -313q0 -222 -121 -360t-311 -138q-163 0 -203 111q-74 -111 -232 -111q-154 0 -245.5 106t-91.5 286q0 203 118 339t295 136q83 0 137 -26.5t105 -92.5l14 111h197 l-68 -605q-2 -10 -2 -30q0 -54 56 -54q82 0 142 108t60 253q0 257 -159.5 416t-417.5 159q-184 0 -332 -84.5t-231.5 -234.5t-83.5 -336q0 -130 46.5 -246.5t131 -204.5t212 -140t279.5 -52q178 0 305 96l95 -123q-84 -65 -179 -94t-225 -29q-172 0 -322.5 60.5t-258 165.5 t-169 254t-61.5 319zM567 727q0 -89 43.5 -142t116.5 -53q89 0 147 65.5t58 168.5q0 86 -42 136t-114 50q-86 0 -147.5 -65.5t-61.5 -159.5z" />
<glyph unicode="A" horiz-adv-x="1515" d="M14 0l631 1513h221l635 -1513h-309l-162 391h-538l-168 -391h-310zM594 659h324l-162 459z" />
<glyph unicode="B" horiz-adv-x="1187" d="M139 0v1513h312q170 0 256 -15t153 -58q82 -53 127 -139t45 -191q0 -106 -38.5 -172t-129.5 -113q141 -59 199.5 -147t58.5 -227q0 -212 -146.5 -331.5t-432.5 -119.5h-404zM420 268h139q147 0 214 45t67 144q0 101 -70.5 149.5t-216.5 48.5h-133v-387zM420 930h90 q128 0 185 36.5t57 118.5q0 154 -217 154h-115v-309z" />
<glyph unicode="C" horiz-adv-x="1597" d="M61 762q0 158 62 302t166.5 248t248.5 166t302 62q235 0 426 -121.5t290 -339.5h-313q-77 100 -171 145.5t-226 45.5q-215 0 -358.5 -147.5t-143.5 -362.5q0 -139 68.5 -258t185.5 -188.5t254 -69.5q109 0 196 41t179 137h329q-89 -207 -277.5 -328t-420.5 -121 q-163 0 -310.5 62.5t-254 168t-169.5 251.5t-63 307z" />
<glyph unicode="D" horiz-adv-x="1433" d="M139 0v1513h346q358 0 537 -108q158 -95 244 -265t86 -386q0 -229 -98 -406.5t-273 -263.5q-92 -46 -204.5 -65t-284.5 -19h-353zM420 268h61q247 0 369 68q101 55 160 168t59 250q0 146 -61.5 260t-169.5 170q-66 34 -147.5 47.5t-215.5 13.5h-55v-977z" />
<glyph unicode="E" horiz-adv-x="1064" d="M139 0v1513h813v-268h-532v-356h510v-268h-510v-353h532v-268h-813z" />
<glyph unicode="F" horiz-adv-x="983" d="M139 0v1513h770v-268h-489v-356h467v-268h-467v-621h-281z" />
<glyph unicode="G" horiz-adv-x="1720" d="M61 760q0 160 63 304.5t169.5 248.5t254 165.5t310.5 61.5q247 0 456 -133.5t283 -337.5h-329q-70 98 -177 149.5t-239 51.5q-146 0 -263 -69t-181 -186t-64 -259t68.5 -259.5t189 -185t266.5 -67.5q149 0 266.5 70t178.5 196h-627v262h989v-37q0 -152 -61.5 -292.5 t-166 -243.5t-251.5 -164.5t-311 -61.5q-171 0 -324 61.5t-262.5 166t-173.5 250.5t-64 309z" />
<glyph unicode="H" horiz-adv-x="1392" d="M139 0v1513h281v-610h541v610h280v-1513h-280v635h-541v-635h-281z" />
<glyph unicode="I" horiz-adv-x="573" d="M139 0v1513h281v-1513h-281z" />
<glyph unicode="J" horiz-adv-x="983" d="M18 358h281q27 -114 133 -114q135 0 135 198v1071h281v-1079q0 -214 -110 -337.5t-300 -123.5q-170 0 -285 99.5t-135 285.5z" />
<glyph unicode="K" horiz-adv-x="1269" d="M139 0v1513h281v-653l469 653h338l-570 -743l570 -770h-338l-469 666v-666h-281z" />
<glyph unicode="L" horiz-adv-x="901" d="M139 0v1513h281v-1245h463v-268h-744z" />
<glyph unicode="M" horiz-adv-x="1843" d="M139 0v1513h385l408 -1146l403 1146h385v-1513h-280v1135l-396 -1135h-229l-395 1135v-1135h-281z" />
<glyph unicode="N" horiz-adv-x="1515" d="M139 0v1513h320l626 -1101v1101h281v-1513h-313l-633 1100v-1100h-281z" />
<glyph unicode="O" horiz-adv-x="1720" d="M61 756q0 163 62 308.5t168 249.5t254.5 165t314.5 61q159 0 303.5 -62t248 -166.5t165 -249.5t61.5 -304q0 -163 -60.5 -308.5t-164 -250t-248.5 -165.5t-307 -61q-164 0 -311.5 61.5t-254 166t-169 249.5t-62.5 306zM344 756q0 -215 148.5 -363.5t363.5 -148.5 t357.5 145.5t142.5 364.5q0 218 -144.5 367t-355.5 149q-218 0 -365 -147t-147 -367z" />
<glyph unicode="P" d="M139 0v1513h375q151 0 236.5 -15.5t150.5 -53.5q98 -60 151.5 -163.5t53.5 -233.5t-53.5 -238.5t-145.5 -165.5q-63 -38 -149.5 -53t-247.5 -15h-90v-575h-281zM420 844h82q124 0 195.5 23t98.5 64.5t27 110.5q0 116 -71 159.5t-238 43.5h-94v-401z" />
<glyph unicode="Q" horiz-adv-x="1720" d="M61 758q0 162 62.5 307t170 249t257 165t317.5 61q226 0 409.5 -102.5t287.5 -283.5t104 -404q0 -298 -182 -486q51 -27 77.5 -36t61.5 -9q26 0 70 6v-254q-16 -2 -54 -2q-95 0 -168.5 27.5t-173.5 95.5q-79 -55 -191 -87t-228 -32q-168 0 -320 62t-261.5 166.5t-174 250 t-64.5 306.5zM342 756q0 -35 4 -72q105 27 234 27q181 0 363.5 -78t320.5 -215q122 125 122 327q0 226 -149 375.5t-373 149.5q-146 0 -266 -67t-188 -185t-68 -262zM432 465q167 -221 449 -221q56 0 95 8.5t87 30.5q-130 104 -245 151t-240 47q-58 0 -146 -16z" />
<glyph unicode="R" horiz-adv-x="1187" d="M139 0v1513h436q156 0 248.5 -24.5t165.5 -87.5q160 -135 160 -373q0 -370 -395 -469l409 -559h-346l-397 580v-580h-281zM420 791h137q163 0 236 54.5t73 174.5q0 55 -13 93t-47 69.5t-99 47t-162 15.5h-125v-454z" />
<glyph unicode="S" horiz-adv-x="1064" d="M29 432h293q18 -188 204 -188q91 0 148 51t57 133q0 100 -69 154q-32 25 -66.5 40t-196.5 76q-152 57 -233.5 163.5t-81.5 248.5q0 180 128.5 305t311.5 125q187 0 313 -117t136 -313h-291q-6 76 -48 118t-112 42q-69 0 -112 -43t-43 -111q0 -84 84 -137q27 -16 167 -68 q222 -83 307 -187t85 -265q0 -205 -140 -345.5t-344 -140.5q-203 0 -341 123.5t-156 335.5z" />
<glyph unicode="T" horiz-adv-x="860" d="M14 1245v268h842v-268h-281v-1245h-280v1245h-281z" />
<glyph unicode="U" horiz-adv-x="1310" d="M139 555v958h281v-958q0 -169 58.5 -240t172.5 -71q112 0 171 70.5t59 240.5v958h280v-958q0 -282 -140 -432t-372 -150q-230 0 -370 150.5t-140 431.5z" />
<glyph unicode="V" horiz-adv-x="1433" d="M16 1513h295l408 -1151l407 1151h295l-585 -1513h-230z" />
<glyph unicode="W" horiz-adv-x="1843" d="M14 1513h287l266 -1056l258 1056h205l254 -1056l268 1056h287l-442 -1513h-223l-244 1001l-250 -1001h-221z" />
<glyph unicode="X" horiz-adv-x="1392" d="M10 0l520 754l-520 759h334l352 -528l363 528h325l-524 -759l524 -754h-325l-363 522l-352 -522h-334z" />
<glyph unicode="Y" horiz-adv-x="1269" d="M6 1513h303l336 -696l334 696h303l-498 -954v-559h-280v559z" />
<glyph unicode="Z" horiz-adv-x="1024" d="M37 0v238l573 1007h-542v268h876v-251l-569 -994h608v-268h-946z" />
<glyph unicode="[" horiz-adv-x="655" d="M152 383v530q0 236 103 383t343 217v-301q-55 -23 -89.5 -55t-52 -78.5t-23 -95.5t-5.5 -125v-522q0 -61 7 -107t25.5 -88t52.5 -72t85 -49v-301q-217 49 -331.5 210t-114.5 454z" />
<glyph unicode="\" horiz-adv-x="1310" d="M172 1513h193l665 -1513h-192z" />
<glyph unicode="]" horiz-adv-x="655" d="M76 20q55 22 89.5 54t52 79.5t23 96.5t5.5 125v522q0 124 -35.5 199.5t-134.5 115.5v301q218 -49 332 -210t114 -453v-531q0 -235 -103.5 -382.5t-342.5 -217.5v301z" />
<glyph unicode="^" horiz-adv-x="1228" d="M129 743l367 770h249l367 -770l-213 -102l-278 565l-279 -565z" />
<glyph unicode="_" horiz-adv-x="1024" d="M0 -98h1024v-185h-1024v185z" />
<glyph unicode="`" horiz-adv-x="860" d="M51 1483l111 188l459 -274l-105 -160z" />
<glyph unicode="a" horiz-adv-x="1351" d="M61 563q0 171 74 307.5t206 213.5t298 77q123 0 212 -42.5t159 -135.5v152h250v-1135h-250v147q-82 -93 -169.5 -133.5t-207.5 -40.5q-164 0 -294.5 75.5t-204 210.5t-73.5 304zM336 557q0 -149 93.5 -241.5t242.5 -92.5q151 0 240 95.5t89 240.5q0 155 -93.5 253.5 t-239.5 98.5t-239 -99.5t-93 -254.5z" />
<glyph unicode="b" horiz-adv-x="1351" d="M111 0v1513h272v-483q78 78 160 112t192 34q161 0 292 -78.5t205.5 -216t74.5 -306.5q0 -257 -157.5 -429.5t-395.5 -172.5q-126 0 -216 39t-178 133v-145h-249zM367 575q0 -155 93.5 -253.5t241.5 -98.5q146 0 238 97.5t92 252.5q0 153 -95 253t-241 100 q-143 0 -236 -99t-93 -252z" />
<glyph unicode="c" horiz-adv-x="1310" d="M61 567q0 164 79 300.5t216.5 215t302.5 78.5q197 0 352 -107t220 -298h-307q-82 155 -265 155q-141 0 -232 -96.5t-91 -245.5t94.5 -247.5t235.5 -98.5q84 0 145.5 36t112.5 114h307q-71 -191 -218 -295.5t-345 -104.5q-124 0 -236.5 47t-193.5 126t-129 189t-48 232z " />
<glyph unicode="d" horiz-adv-x="1351" d="M61 569q0 167 75.5 307t206 220t286.5 80q107 0 200.5 -38t153.5 -104v479h272v-1513h-249v147q-81 -92 -170 -133t-205 -41q-159 0 -289.5 78.5t-205.5 215t-75 302.5zM336 582q0 -151 98 -255t240 -104q138 0 234 101.5t96 248.5q0 149 -97 251t-239 102 q-140 0 -236 -99.5t-96 -244.5z" />
<glyph unicode="e" horiz-adv-x="1310" d="M61 563q0 164 79.5 301.5t217 217t301.5 79.5q167 0 301 -78.5t209.5 -218t75.5 -313.5q0 -56 -10 -105h-879q25 -103 109 -163t205 -60q84 0 140.5 25.5t109.5 87.5h297q-37 -113 -122.5 -196.5t-194 -125t-224.5 -41.5q-128 0 -242 46t-195.5 124.5t-129.5 188 t-48 231.5zM348 686h629q-26 109 -106.5 167t-206.5 58q-121 0 -202.5 -58t-113.5 -167z" />
<glyph unicode="f" horiz-adv-x="573" d="M20 887v227h99q22 213 119.5 306t255.5 93q34 0 67 -4v-258h-26q-79 0 -110.5 -30t-33.5 -107h154v-227h-154v-887h-272v887h-99z" />
<glyph unicode="g" horiz-adv-x="1351" d="M61 575q0 252 159.5 419t400.5 167q246 0 370 -170v144h260v-920q0 -668 -587 -668q-209 0 -362 95t-222 266h309q60 -66 125 -93.5t160 -27.5q152 0 231 90t86 273q-80 -94 -166.5 -135.5t-206.5 -41.5q-160 0 -287.5 77t-198.5 214.5t-71 310.5zM336 563 q0 -155 86.5 -247.5t232.5 -92.5t235 93t89 247q0 155 -91 251.5t-237 96.5q-142 0 -228.5 -95.5t-86.5 -252.5z" />
<glyph unicode="h" horiz-adv-x="1228" d="M111 0v1513h272v-456q117 106 289 106q444 0 444 -522v-641h-272v580q0 179 -50.5 255t-170.5 76q-121 0 -180.5 -77t-59.5 -259v-575h-272z" />
<glyph unicode="i" horiz-adv-x="491" d="M111 0v1135h272v-1135h-272zM113 1298v273h272v-273h-272z" />
<glyph unicode="j" horiz-adv-x="532" d="M35 -115q41 7 61 15t33 31t15.5 54.5t2.5 96.5v1053h273v-1059q0 -223 -103.5 -339t-281.5 -116v264zM150 1298v273h272v-273h-272z" />
<glyph unicode="k" horiz-adv-x="1187" d="M111 0v1513h272v-913l362 535h326l-405 -555l471 -580h-367l-387 530v-530h-272z" />
<glyph unicode="l" horiz-adv-x="491" d="M111 0v1513h272v-1513h-272z" />
<glyph unicode="m" horiz-adv-x="1925" d="M111 0v1135h249v-107q60 72 127.5 102.5t167.5 30.5q117 0 196 -42t138 -134q69 92 156.5 134t208.5 42q226 0 342 -126.5t116 -379.5v-655h-272v623q0 160 -54.5 224t-158.5 64q-119 0 -174 -78t-55 -274v-559h-273v623q0 160 -54 224t-167 64q-121 0 -171 -77t-50 -275 v-559h-272z" />
<glyph unicode="n" horiz-adv-x="1228" d="M111 0v1135h251v-109q75 72 149.5 103.5t170.5 31.5q240 0 354 -164q46 -66 64 -151.5t18 -237.5v-608h-272v555q0 111 -14 183t-44.5 109t-67 50.5t-91.5 13.5q-135 0 -201 -104q-26 -41 -35.5 -99t-9.5 -173v-535h-272z" />
<glyph unicode="o" horiz-adv-x="1310" d="M61 567q0 160 81 297t219.5 217t300.5 80q168 0 307.5 -79.5t219 -217.5t79.5 -305q0 -157 -81.5 -292t-221 -214.5t-301.5 -79.5q-163 0 -302 79.5t-220 216.5t-81 298zM336 571q0 -146 96 -247t234 -101q135 0 231 101t96 243q0 141 -96.5 242.5t-232.5 101.5 q-134 0 -231 -100.5t-97 -239.5z" />
<glyph unicode="p" horiz-adv-x="1351" d="M111 -379v1514h249v-134q66 77 162 118.5t211 41.5q162 0 291 -75.5t201.5 -210.5t72.5 -304q0 -170 -73 -306.5t-202.5 -214t-291.5 -77.5q-201 0 -348 133v-485h-272zM367 569q0 -149 95 -247.5t240 -98.5q135 0 228.5 99t93.5 243q0 147 -94 246.5t-232 99.5 q-141 0 -236 -98t-95 -244z" />
<glyph unicode="q" horiz-adv-x="1351" d="M61 571q0 161 76.5 297t208 214.5t287.5 78.5q125 0 213.5 -41.5t154.5 -130.5v146h250v-1514h-272v488q-136 -136 -342 -136q-161 0 -293 78.5t-207.5 215.5t-75.5 304zM336 565q0 -148 94.5 -245t239.5 -97q140 0 232.5 97t92.5 243q0 149 -92.5 248.5t-230.5 99.5 q-145 0 -240.5 -98.5t-95.5 -247.5z" />
<glyph unicode="r" horiz-adv-x="655" d="M111 0v1135h249v-111q54 78 106.5 107.5t139.5 29.5h21v-262q-244 -6 -244 -268v-631h-272z" />
<glyph unicode="s" horiz-adv-x="901" d="M39 360h274q20 -72 56 -104.5t96 -32.5q52 0 87.5 32t35.5 79q0 37 -10.5 55t-50.5 38.5t-132 51.5q-169 57 -242 134.5t-73 201.5q0 146 109 246t268 100q150 0 257.5 -92.5t114.5 -247.5h-266q-18 90 -106 90q-44 0 -74.5 -27.5t-30.5 -68.5q0 -17 0.5 -25.5t8.5 -19.5 t17 -16.5t35 -16.5t52.5 -19.5l79.5 -25.5q176 -55 245.5 -129.5t69.5 -202.5q0 -163 -117.5 -275t-287.5 -112q-174 0 -284.5 97.5t-131.5 289.5z" />
<glyph unicode="t" horiz-adv-x="614" d="M18 887v248h134v378h272v-378h164v-248h-164v-887h-272v887h-134z" />
<glyph unicode="u" horiz-adv-x="1228" d="M111 526v609h272v-555q0 -110 14.5 -182.5t44.5 -109.5t66.5 -51t89.5 -14q68 0 122 27.5t85 77.5q24 39 33.5 99t9.5 173v535h272v-1135h-252v109q-77 -75 -149.5 -105.5t-175.5 -30.5q-432 0 -432 553z" />
<glyph unicode="v" d="M2 1135h303l262 -752l258 752h308l-457 -1135h-217z" />
<glyph unicode="w" horiz-adv-x="1638" d="M20 1135h293l203 -693l191 693h217l186 -693l207 693h291l-410 -1135h-170l-215 735l-219 -735h-168z" />
<glyph unicode="x" d="M2 0l401 586l-348 549h307l205 -342l201 342h307l-346 -549l404 -586h-328l-238 389l-237 -389h-328z" />
<glyph unicode="y" horiz-adv-x="1187" d="M12 1135h312l251 -736l275 736h313l-655 -1514h-293l213 485z" />
<glyph unicode="z" horiz-adv-x="942" d="M41 0v244l500 647h-443v244h768v-244l-499 -647h538v-244h-864z" />
<glyph unicode="{" horiz-adv-x="696" d="M76 543v166q86 10 126 58.5t40 141.5v322q0 151 69 218t224 67q37 0 83 -3v-163q-58 -5 -87 -12.5t-47.5 -32t-22.5 -59.5t-4 -105v-252q0 -120 -41 -178t-144 -86q101 -25 143 -84t42 -179v-251q0 -70 4 -105t22.5 -59.5t47.5 -32t87 -12.5v-164q-31 -2 -83 -2 q-155 0 -224 66.5t-69 217.5v322q0 93 -40 142t-126 59z" />
<glyph unicode="|" horiz-adv-x="1228" d="M473 -281v1794h283v-1794h-283z" />
<glyph unicode="}" horiz-adv-x="696" d="M78 -98q39 3 62.5 7t43.5 14t29.5 22.5t16.5 37t8.5 53t1.5 75.5v251q0 120 40.5 178.5t143.5 86.5q-101 25 -142.5 83.5t-41.5 178.5v252q0 47 -1.5 75.5t-8.5 53t-16.5 37t-29.5 22.5t-43.5 14t-62.5 7v163q46 3 84 3q155 0 224 -67t69 -218v-322q0 -93 40 -141.5 t126 -58.5v-166q-86 -10 -126 -59t-40 -142v-322q0 -151 -69 -217.5t-224 -66.5q-53 0 -84 2v164z" />
<glyph unicode="~" horiz-adv-x="1228" d="M104 592q46 74 75.5 115t66 75.5t74.5 48t88 13.5q76 0 157 -33l137 -55q83 -34 101.5 -39.5t44.5 -5.5q35 0 76.5 39.5t81.5 111.5l131 -151q-79 -132 -146.5 -186t-150.5 -54q-70 0 -187 49l-110 45q-97 39 -131 39q-55 0 -97 -45q-22 -22 -82 -121z" />
<glyph unicode="&#xa1;" horiz-adv-x="573" d="M154 -379v1129h272v-1129h-272zM154 872v263h272v-263h-272z" />
<glyph unicode="&#xa2;" d="M80 780q0 167 97 297.5t269 173.5v213h256v-213q132 -32 224.5 -125t120.5 -219h-291q-31 43 -82.5 68.5t-108.5 25.5q-91 0 -152 -64t-61 -161t63 -160t158 -63q102 0 175 82h299q-54 -137 -138.5 -218.5t-206.5 -113.5v-223h-256v223q-163 37 -264.5 168.5 t-101.5 308.5z" />
<glyph unicode="&#xa3;" d="M0 635v256h119q-35 77 -35 166q0 202 142.5 342.5t346.5 140.5q195 0 329 -120t151 -312h-277q-23 88 -75 135t-126 47q-92 0 -155.5 -70t-63.5 -173q0 -88 56 -156h424v-256h-220q66 -129 66 -225q0 -75 -27 -154q109 0 167.5 53.5t58.5 141.5q0 40 -21 110h270 q23 -62 23 -106q0 -99 -41 -190t-113 -154q-72 -62 -157 -86.5t-226 -24.5h-532v256h285q41 68 41 150q0 63 -27.5 116t-91.5 113h-291z" />
<glyph unicode="&#xa4;" d="M55 469l86 88q-44 85 -58.5 136t-14.5 126t14.5 127t58.5 137l-86 93l164 163l92 -90q122 74 262 74q138 0 271 -74l92 88l158 -166l-86 -88q44 -76 59.5 -132t15.5 -134q0 -77 -16.5 -134.5t-60.5 -127.5l86 -88l-158 -164l-90 86q-127 -76 -269 -76q-138 0 -268 76 l-90 -86zM313 819q0 -106 77.5 -183t184.5 -77t183 75.5t76 182.5q0 106 -74.5 183t-177.5 77q-112 0 -190.5 -75.5t-78.5 -182.5z" />
<glyph unicode="&#xa5;" d="M-72 1513h305l328 -698l330 698h315l-293 -555h189v-180h-287l-117 -215h404v-180h-404v-383h-272v383h-401v180h401l-115 215h-286v180h192z" />
<glyph unicode="&#xa6;" horiz-adv-x="1228" d="M473 -281v717h283v-717h-283zM473 797v716h283v-716h-283z" />
<glyph unicode="&#xa7;" d="M82 711q0 94 38 165t122 134q-58 88 -58 190q0 151 115 245.5t297 94.5q183 0 290 -98t132 -289h-258q-14 71 -56 104t-120 33q-64 0 -102 -27t-38 -71q0 -84 125 -143l336 -166q82 -40 130 -117t48 -168q0 -84 -40 -160t-113 -131q54 -55 78 -112.5t24 -131.5 q0 -169 -123.5 -277t-316.5 -108q-199 0 -325.5 114t-143.5 321h274q0 -92 50.5 -138.5t146.5 -46.5q76 0 127 38t51 95q0 43 -30 74t-119 76l-334 172q-207 107 -207 328zM322 725q0 -35 28 -65t94 -64l310 -156q75 53 75 129q0 37 -24.5 63t-97.5 62l-306 152 q-43 -34 -61 -61.5t-18 -59.5z" />
<glyph unicode="&#xa8;" horiz-adv-x="1024" d="M152 1298v273h272v-273h-272zM582 1298v273h272v-273h-272z" />
<glyph unicode="&#xa9;" horiz-adv-x="1515" d="M41 690q0 145 57 278t153 229t229 153t278 57t278 -57t229 -153t153 -229t57 -278t-57 -278t-153 -229t-229 -153t-278 -57t-278 57t-229 153t-153 229t-57 278zM164 690q0 -161 79.5 -298t216.5 -216.5t298 -79.5t298 79.5t216.5 216.5t79.5 298t-79.5 298t-216.5 216.5 t-298 79.5t-298 -79.5t-216.5 -216.5t-79.5 -298zM311 694q0 171 134.5 294.5t322.5 123.5q148 0 264 -73.5t170 -204.5h-215q-78 96 -215 96q-112 0 -187 -68.5t-75 -169.5q0 -99 78 -170t186 -71q60 0 107 21t98 71h221q-44 -124 -160 -199.5t-262 -75.5 q-194 0 -330.5 125.5t-136.5 300.5z" />
<glyph unicode="&#xaa;" horiz-adv-x="737" d="M57 1212q0 135 87.5 229.5t213.5 94.5q120 0 199 -102v79h135v-610h-135v84q-78 -104 -209 -104q-123 0 -207 95t-84 234zM63 635v143h637v-143h-637zM213 1206q0 -71 48.5 -121.5t117.5 -50.5t117.5 51.5t48.5 124.5q0 74 -48 124t-118 50q-69 0 -117.5 -52t-48.5 -126z " />
<glyph unicode="&#xab;" horiz-adv-x="942" d="M74 489v205l284 267v-252l-137 -117l137 -119v-252zM510 489v205l285 267v-252l-138 -117l138 -119v-252z" />
<glyph unicode="&#xac;" horiz-adv-x="1228" d="M111 559v283h1007v-518h-282v235h-725z" />
<glyph unicode="&#xad;" horiz-adv-x="860" d="M152 469v242h567v-242h-567z" />
<glyph unicode="&#xae;" horiz-adv-x="1515" d="M41 690q0 145 57 278t153 229t229 153t278 57t278 -57t229 -153t153 -229t57 -278t-57 -278t-153 -229t-229 -153t-278 -57t-278 57t-229 153t-153 229t-57 278zM164 690q0 -161 79.5 -298t216.5 -216.5t298 -79.5t298 79.5t216.5 216.5t79.5 298t-79.5 298t-216.5 216.5 t-298 79.5t-298 -79.5t-216.5 -216.5t-79.5 -298zM438 283v817h264q92 0 146.5 -14t97.5 -48q98 -76 98 -209q0 -192 -204 -251l237 -295h-248l-194 258v-258h-197zM616 709h76q92 0 133 27.5t41 88.5q0 57 -37.5 86t-142.5 29h-70v-231z" />
<glyph unicode="&#xaf;" horiz-adv-x="860" d="M152 1331v205h567v-205h-567z" />
<glyph unicode="&#xb0;" horiz-adv-x="819" d="M102 1094q0 130 92 220.5t224 90.5q126 0 212.5 -90.5t86.5 -222.5t-89 -223t-218 -91t-218.5 92t-89.5 224zM217 1092q0 -81 57.5 -139t135.5 -58q80 0 135 57t55 140q0 81 -54.5 138.5t-131.5 57.5q-83 0 -140 -57t-57 -139z" />
<glyph unicode="&#xb1;" horiz-adv-x="1228" d="M111 0v283h1007v-283h-1007zM111 653v283h362v362h283v-362h362v-283h-362v-116h-283v116h-362z" />
<glyph unicode="&#xb2;" horiz-adv-x="688" d="M20 1192q0 161 89 249.5t237 88.5q138 0 230 -85.5t92 -213.5q0 -162 -183 -307l-192 -154h371v-164h-637v152l348 303q62 54 86 92.5t26 81.5q0 57 -39.5 95t-99.5 38q-69 0 -108.5 -46t-40.5 -130h-179z" />
<glyph unicode="&#xb3;" horiz-adv-x="688" d="M8 891h180q9 -65 51.5 -102t108.5 -37q65 0 108.5 40t43.5 101q0 66 -53 104.5t-142 38.5h-43v168q94 1 132 20.5t38 65.5q0 34 -25 56t-63 22t-58.5 -19t-27.5 -63h-182q11 121 84 181.5t182 60.5q117 0 193.5 -70.5t76.5 -177.5q0 -98 -69 -152q65 -31 100 -90.5 t35 -138.5q0 -133 -93.5 -221t-236.5 -88q-144 0 -238 83.5t-102 217.5z" />
<glyph unicode="&#xb4;" horiz-adv-x="860" d="M240 1397l458 274l111 -188l-465 -246z" />
<glyph unicode="&#xb5;" horiz-adv-x="1179" d="M111 -379v1514h272v-557q0 -56 4 -100t17 -93t35 -81t61 -53.5t92 -21.5t92 21.5t60.5 54t34.5 81.5t16.5 92.5t3.5 99.5v557h272v-1135h-250v121q-42 -82 -107.5 -120t-160.5 -38q-82 0 -170 39v-381h-272z" />
<glyph unicode="&#xb6;" horiz-adv-x="1228" d="M76 1092q0 208 133.5 314.5t423.5 106.5h446v-1775h-207v1556h-172v-1556h-206v938q-187 3 -302.5 118t-115.5 298z" />
<glyph unicode="&#xb7;" horiz-adv-x="573" d="M156 512q0 54 38.5 92.5t92.5 38.5t92.5 -38.5t38.5 -92.5t-38.5 -92.5t-92.5 -38.5t-92.5 38.5t-38.5 92.5z" />
<glyph unicode="&#xb8;" horiz-adv-x="696" d="M152 -340h124q26 -59 78 -59q32 0 56 27t24 65q0 37 -23 63.5t-57 26.5q-22 0 -39 -12t-39 -43l-106 53l94 229h107l-64 -129q41 15 60 15q75 0 130.5 -61.5t55.5 -145.5q0 -90 -54.5 -145.5t-142.5 -55.5q-78 0 -135 48t-69 124z" />
<glyph unicode="&#xb9;" horiz-adv-x="688" d="M193 1350v163h301v-907h-181v744h-120z" />
<glyph unicode="&#xba;" horiz-adv-x="737" d="M63 637v143h629v-143h-629zM63 1227q0 126 93.5 217.5t222.5 91.5q131 0 222 -91.5t91 -223.5t-91.5 -224t-223.5 -92q-129 0 -221.5 95t-92.5 227zM213 1227q0 -73 46.5 -121.5t117.5 -48.5t118.5 47.5t47.5 118.5q0 69 -49 119.5t-115 50.5q-67 0 -116.5 -49.5 t-49.5 -116.5z" />
<glyph unicode="&#xbb;" horiz-adv-x="942" d="M150 221v252l137 119l-137 117v252l284 -267v-205zM586 221v252l137 119l-137 117v252l284 -267v-205z" />
<glyph unicode="&#xbc;" horiz-adv-x="1720" d="M193 1350v163h301v-907h-181v744h-120zM451 0l626 1513h195l-627 -1513h-194zM1036 135v137l426 635h152v-616h98v-156h-98v-135h-180v135h-398zM1225 291h209v315z" />
<glyph unicode="&#xbd;" horiz-adv-x="1720" d="M193 1350v163h301v-907h-181v744h-120zM408 0l626 1513h195l-627 -1513h-194zM1053 586q0 162 89 250t236 88q138 0 230 -85.5t92 -213.5q0 -164 -182 -308l-193 -153h371v-164h-637v152l348 303q63 54 87 92.5t26 81.5q0 57 -40 95t-100 38q-69 0 -108.5 -46t-40.5 -130 h-178z" />
<glyph unicode="&#xbe;" horiz-adv-x="1720" d="M8 891h180q9 -65 51.5 -102t108.5 -37q65 0 108.5 40t43.5 101q0 66 -53 104.5t-142 38.5h-43v168q94 1 132 20.5t38 65.5q0 34 -25 56t-63 22t-58.5 -19t-27.5 -63h-182q11 121 84 181.5t182 60.5q117 0 193.5 -70.5t76.5 -177.5q0 -98 -69 -152q65 -31 100 -90.5 t35 -138.5q0 -133 -93.5 -221t-236.5 -88q-144 0 -238 83.5t-102 217.5zM512 0l627 1513h194l-626 -1513h-195zM1036 135v137l426 635h152v-616h98v-156h-98v-135h-180v135h-398zM1225 291h209v315z" />
<glyph unicode="&#xbf;" d="M154 63q0 104 45.5 184.5t162.5 182.5q85 73 108.5 130.5t25.5 191.5h272q0 -193 -48.5 -295.5t-201.5 -227.5q-92 -77 -92 -174q0 -83 55 -136.5t140 -53.5q83 0 128.5 50t59.5 155h272q-12 -154 -78 -263t-165.5 -161t-223.5 -52q-197 0 -328.5 134t-131.5 335z M496 872v263h272v-263h-272z" />
<glyph unicode="&#xc0;" horiz-adv-x="1515" d="M14 0l631 1513h221l635 -1513h-309l-162 391h-538l-168 -391h-310zM377 1841l110 189l459 -275l-104 -160zM594 659h324l-162 459z" />
<glyph unicode="&#xc1;" horiz-adv-x="1515" d="M14 0l631 1513h221l635 -1513h-309l-162 391h-538l-168 -391h-310zM565 1755l459 275l111 -189l-465 -246zM594 659h324l-162 459z" />
<glyph unicode="&#xc2;" horiz-adv-x="1515" d="M14 0l631 1513h221l635 -1513h-309l-162 391h-538l-168 -391h-310zM348 1651l301 282h219l297 -282h-297l-108 131l-111 -131h-301zM594 659h324l-162 459z" />
<glyph unicode="&#xc3;" horiz-adv-x="1515" d="M14 0l631 1513h221l635 -1513h-309l-162 391h-538l-168 -391h-310zM416 1817q54 54 100 75t111 21q24 0 107.5 -25.5t111.5 -25.5q76 0 137 69l111 -166q-50 -60 -94.5 -86t-98.5 -26q-26 0 -119.5 25.5t-111.5 25.5q-38 0 -61.5 -8.5t-82.5 -42.5zM594 659h324l-162 459 z" />
<glyph unicode="&#xc4;" horiz-adv-x="1515" d="M14 0l631 1513h221l635 -1513h-309l-162 391h-538l-168 -391h-310zM395 1657v272h273v-272h-273zM594 659h324l-162 459zM825 1657v272h273v-272h-273z" />
<glyph unicode="&#xc5;" horiz-adv-x="1515" d="M14 0l631 1513h221l635 -1513h-309l-162 391h-538l-168 -391h-310zM524 1819q0 97 68 164t166 67q95 0 162 -68t67 -163q0 -97 -67.5 -164.5t-163.5 -67.5q-97 0 -164.5 67.5t-67.5 164.5zM594 659h324l-162 459zM674 1819q0 -34 24 -58t58 -24t58 24t24 58t-24 58 t-58 24t-58 -24t-24 -58z" />
<glyph unicode="&#xc6;" horiz-adv-x="1843" d="M35 0l997 1513h694v-268h-446v-356h424v-268h-424v-353h446v-268h-727v391h-397l-229 -391h-338zM764 659h235v392z" />
<glyph unicode="&#xc7;" horiz-adv-x="1597" d="M61 762q0 158 62 302t166.5 248t248.5 166t302 62q235 0 426 -121.5t290 -339.5h-313q-77 100 -171 145.5t-226 45.5q-215 0 -358.5 -147.5t-143.5 -362.5q0 -139 68.5 -258t185.5 -188.5t254 -69.5q109 0 196 41t179 137h329q-86 -201 -266 -321t-405 -128l-45 -92 q40 15 59 15q75 0 130.5 -61.5t55.5 -145.5q0 -91 -54 -146t-142 -55q-78 0 -135.5 48t-69.5 124h125q26 -59 78 -59q32 0 56 27t24 65q0 37 -23 63.5t-57 26.5q-22 0 -39 -12t-39 -43l-107 53l80 196q-150 14 -283.5 81t-229.5 170.5t-152 242.5t-56 291z" />
<glyph unicode="&#xc8;" horiz-adv-x="1064" d="M139 0v1513h813v-268h-532v-356h510v-268h-510v-353h532v-268h-813zM168 1841l111 189l458 -275l-104 -160z" />
<glyph unicode="&#xc9;" horiz-adv-x="1064" d="M139 0v1513h813v-268h-532v-356h510v-268h-510v-353h532v-268h-813zM356 1755l459 275l111 -189l-465 -246z" />
<glyph unicode="&#xca;" horiz-adv-x="1064" d="M139 0v1513h813v-268h-532v-356h510v-268h-510v-353h532v-268h-813zM139 1651l301 282h219l297 -282h-297l-108 131l-111 -131h-301z" />
<glyph unicode="&#xcb;" horiz-adv-x="1064" d="M139 0v1513h813v-268h-532v-356h510v-268h-510v-353h532v-268h-813zM186 1657v272h273v-272h-273zM616 1657v272h273v-272h-273z" />
<glyph unicode="&#xcc;" horiz-adv-x="573" d="M-45 1841l111 189l458 -275l-104 -160zM139 0v1513h281v-1513h-281z" />
<glyph unicode="&#xcd;" horiz-adv-x="573" d="M35 1755l459 275l110 -189l-465 -246zM139 0v1513h281v-1513h-281z" />
<glyph unicode="&#xce;" horiz-adv-x="573" d="M-127 1651l301 282h219l297 -282h-297l-108 131l-111 -131h-301zM139 0v1513h281v-1513h-281z" />
<glyph unicode="&#xcf;" horiz-adv-x="573" d="M-80 1657v272h273v-272h-273zM139 0v1513h281v-1513h-281zM350 1657v272h273v-272h-273z" />
<glyph unicode="&#xd0;" horiz-adv-x="1519" d="M29 645v219h196v649h346q359 0 537 -108q158 -95 244 -265.5t86 -387.5q0 -229 -98 -405.5t-273 -262.5q-92 -46 -204 -65t-285 -19h-353v645h-196zM506 268h61q247 0 369 68q101 56 160 168t59 250q0 145 -62 259.5t-169 170.5q-66 34 -147 47.5t-216 13.5h-55v-381h315 v-219h-315v-377z" />
<glyph unicode="&#xd1;" horiz-adv-x="1515" d="M139 0v1513h320l626 -1101v1101h281v-1513h-313l-633 1100v-1100h-281zM414 1817q54 54 100 75t111 21q24 0 107.5 -25.5t111.5 -25.5q76 0 137 69l111 -166q-50 -60 -94.5 -86t-98.5 -26q-26 0 -119.5 25.5t-111.5 25.5q-38 0 -61.5 -8.5t-82.5 -42.5z" />
<glyph unicode="&#xd2;" horiz-adv-x="1720" d="M61 756q0 163 62 308.5t168 249.5t254.5 165t314.5 61q159 0 303.5 -62t248 -166.5t165 -249.5t61.5 -304q0 -163 -60.5 -308.5t-164 -250t-248.5 -165.5t-307 -61q-164 0 -311.5 61.5t-254 166t-169 249.5t-62.5 306zM344 756q0 -215 148.5 -363.5t363.5 -148.5 t357.5 145.5t142.5 364.5q0 218 -144.5 367t-355.5 149q-218 0 -365 -147t-147 -367zM481 1841l111 189l459 -275l-105 -160z" />
<glyph unicode="&#xd3;" horiz-adv-x="1720" d="M61 756q0 163 62 308.5t168 249.5t254.5 165t314.5 61q159 0 303.5 -62t248 -166.5t165 -249.5t61.5 -304q0 -163 -60.5 -308.5t-164 -250t-248.5 -165.5t-307 -61q-164 0 -311.5 61.5t-254 166t-169 249.5t-62.5 306zM344 756q0 -215 148.5 -363.5t363.5 -148.5 t357.5 145.5t142.5 364.5q0 218 -144.5 367t-355.5 149q-218 0 -365 -147t-147 -367zM670 1755l458 275l111 -189l-465 -246z" />
<glyph unicode="&#xd4;" horiz-adv-x="1720" d="M61 756q0 163 62 308.5t168 249.5t254.5 165t314.5 61q159 0 303.5 -62t248 -166.5t165 -249.5t61.5 -304q0 -163 -60.5 -308.5t-164 -250t-248.5 -165.5t-307 -61q-164 0 -311.5 61.5t-254 166t-169 249.5t-62.5 306zM344 756q0 -215 148.5 -363.5t363.5 -148.5 t357.5 145.5t142.5 364.5q0 218 -144.5 367t-355.5 149q-218 0 -365 -147t-147 -367zM453 1651l301 282h219l297 -282h-297l-109 131l-110 -131h-301z" />
<glyph unicode="&#xd5;" horiz-adv-x="1720" d="M61 756q0 163 62 308.5t168 249.5t254.5 165t314.5 61q159 0 303.5 -62t248 -166.5t165 -249.5t61.5 -304q0 -163 -60.5 -308.5t-164 -250t-248.5 -165.5t-307 -61q-164 0 -311.5 61.5t-254 166t-169 249.5t-62.5 306zM344 756q0 -215 148.5 -363.5t363.5 -148.5 t357.5 145.5t142.5 364.5q0 218 -144.5 367t-355.5 149q-218 0 -365 -147t-147 -367zM520 1817q54 54 100 75t111 21q24 0 107.5 -25.5t111.5 -25.5q76 0 137 69l111 -166q-50 -60 -94 -86t-98 -26q-26 0 -120 25.5t-112 25.5q-38 0 -60.5 -8.5t-82.5 -42.5z" />
<glyph unicode="&#xd6;" horiz-adv-x="1720" d="M61 756q0 163 62 308.5t168 249.5t254.5 165t314.5 61q159 0 303.5 -62t248 -166.5t165 -249.5t61.5 -304q0 -163 -60.5 -308.5t-164 -250t-248.5 -165.5t-307 -61q-164 0 -311.5 61.5t-254 166t-169 249.5t-62.5 306zM344 756q0 -215 148.5 -363.5t363.5 -148.5 t357.5 145.5t142.5 364.5q0 218 -144.5 367t-355.5 149q-218 0 -365 -147t-147 -367zM500 1657v272h272v-272h-272zM930 1657v272h272v-272h-272z" />
<glyph unicode="&#xd7;" horiz-adv-x="1228" d="M158 256l256 256l-256 256l200 201l256 -256l256 256l201 -201l-256 -256l256 -256l-201 -201l-256 256l-256 -256z" />
<glyph unicode="&#xd8;" horiz-adv-x="1720" d="M61 758q0 160 62.5 305t168.5 249.5t252.5 166t307.5 61.5q172 0 338 -72l127 189l194 -135l-125 -185q126 -116 192.5 -264t66.5 -315q0 -218 -103.5 -398t-283 -283.5t-396.5 -103.5q-179 0 -344 74l-123 -180l-196 133l120 178q-123 110 -190.5 262.5t-67.5 317.5z M344 758q0 -194 133 -346l557 827q-91 31 -182 31q-139 0 -256 -67.5t-184.5 -185.5t-67.5 -259zM674 276q88 -32 186 -32q215 0 358.5 146t143.5 364q0 200 -131 352z" />
<glyph unicode="&#xd9;" horiz-adv-x="1310" d="M139 555v958h281v-958q0 -169 58.5 -240t172.5 -71q112 0 171 70.5t59 240.5v958h280v-958q0 -282 -140 -432t-372 -150q-230 0 -370 150.5t-140 431.5zM272 1841l111 189l459 -275l-105 -160z" />
<glyph unicode="&#xda;" horiz-adv-x="1310" d="M139 555v958h281v-958q0 -169 58.5 -240t172.5 -71q112 0 171 70.5t59 240.5v958h280v-958q0 -282 -140 -432t-372 -150q-230 0 -370 150.5t-140 431.5zM461 1755l459 275l110 -189l-465 -246z" />
<glyph unicode="&#xdb;" horiz-adv-x="1310" d="M139 555v958h281v-958q0 -169 58.5 -240t172.5 -71q112 0 171 70.5t59 240.5v958h280v-958q0 -282 -140 -432t-372 -150q-230 0 -370 150.5t-140 431.5zM244 1651l301 282h219l297 -282h-297l-109 131l-110 -131h-301z" />
<glyph unicode="&#xdc;" horiz-adv-x="1310" d="M139 555v958h281v-958q0 -169 58.5 -240t172.5 -71q112 0 171 70.5t59 240.5v958h280v-958q0 -282 -140 -432t-372 -150q-230 0 -370 150.5t-140 431.5zM291 1657v272h272v-272h-272zM721 1657v272h272v-272h-272z" />
<glyph unicode="&#xdd;" horiz-adv-x="1269" d="M6 1513h303l336 -696l334 696h303l-498 -954v-559h-280v559zM455 1755l458 275l111 -189l-465 -246z" />
<glyph unicode="&#xde;" d="M139 0v1513h281v-268h94q151 0 236.5 -15.5t150.5 -53.5q98 -60 151.5 -163.5t53.5 -234.5q0 -132 -53.5 -240t-145.5 -165q-63 -38 -150 -53t-247 -15h-90v-305h-281zM420 573h82q182 0 251.5 48t69.5 151q0 118 -70.5 161.5t-238.5 43.5h-94v-404z" />
<glyph unicode="&#xdf;" horiz-adv-x="1228" d="M104 0v997q0 254 121 398.5t332 144.5q189 0 318 -121t129 -301q0 -101 -37.5 -169.5t-116.5 -112.5q173 -40 259.5 -144t86.5 -250q0 -206 -134 -337.5t-345 -131.5q-248 0 -363 189v-162h-250zM377 387h168q13 -70 67.5 -117t122.5 -47q80 0 133.5 56t53.5 141 q0 79 -32 126t-116 73t-229 26h-23v242h23q79 0 131.5 60t52.5 151q0 87 -48 139.5t-126 52.5q-178 0 -178 -260v-643z" />
<glyph unicode="&#xe0;" horiz-adv-x="1351" d="M61 563q0 171 74 307.5t206 213.5t298 77q123 0 212 -42.5t159 -135.5v152h250v-1135h-250v147q-82 -93 -169.5 -133.5t-207.5 -40.5q-164 0 -294.5 75.5t-204 210.5t-73.5 304zM297 1483l111 188l458 -274l-104 -160zM336 557q0 -149 93.5 -241.5t242.5 -92.5 q151 0 240 95.5t89 240.5q0 155 -93.5 253.5t-239.5 98.5t-239 -99.5t-93 -254.5z" />
<glyph unicode="&#xe1;" horiz-adv-x="1351" d="M61 563q0 171 74 307.5t206 213.5t298 77q123 0 212 -42.5t159 -135.5v152h250v-1135h-250v147q-82 -93 -169.5 -133.5t-207.5 -40.5q-164 0 -294.5 75.5t-204 210.5t-73.5 304zM336 557q0 -149 93.5 -241.5t242.5 -92.5q151 0 240 95.5t89 240.5q0 155 -93.5 253.5 t-239.5 98.5t-239 -99.5t-93 -254.5zM485 1397l459 274l111 -188l-465 -246z" />
<glyph unicode="&#xe2;" horiz-adv-x="1351" d="M61 563q0 171 74 307.5t206 213.5t298 77q123 0 212 -42.5t159 -135.5v152h250v-1135h-250v147q-82 -93 -169.5 -133.5t-207.5 -40.5q-164 0 -294.5 75.5t-204 210.5t-73.5 304zM268 1292l301 283h219l297 -283h-297l-108 131l-111 -131h-301zM336 557 q0 -149 93.5 -241.5t242.5 -92.5q151 0 240 95.5t89 240.5q0 155 -93.5 253.5t-239.5 98.5t-239 -99.5t-93 -254.5z" />
<glyph unicode="&#xe3;" horiz-adv-x="1351" d="M61 563q0 171 74 307.5t206 213.5t298 77q123 0 212 -42.5t159 -135.5v152h250v-1135h-250v147q-82 -93 -169.5 -133.5t-207.5 -40.5q-164 0 -294.5 75.5t-204 210.5t-73.5 304zM336 557q0 -149 93.5 -241.5t242.5 -92.5q151 0 240 95.5t89 240.5q0 155 -93.5 253.5 t-239.5 98.5t-239 -99.5t-93 -254.5zM336 1458q54 54 100 75t111 21q24 0 107.5 -25.5t111.5 -25.5q76 0 137 70l111 -166q-50 -60 -94.5 -86.5t-98.5 -26.5q-26 0 -119.5 26t-111.5 26q-37 0 -60.5 -8.5t-83.5 -43.5z" />
<glyph unicode="&#xe4;" horiz-adv-x="1351" d="M61 563q0 171 74 307.5t206 213.5t298 77q123 0 212 -42.5t159 -135.5v152h250v-1135h-250v147q-82 -93 -169.5 -133.5t-207.5 -40.5q-164 0 -294.5 75.5t-204 210.5t-73.5 304zM315 1298v273h273v-273h-273zM336 557q0 -149 93.5 -241.5t242.5 -92.5q151 0 240 95.5 t89 240.5q0 155 -93.5 253.5t-239.5 98.5t-239 -99.5t-93 -254.5zM745 1298v273h273v-273h-273z" />
<glyph unicode="&#xe5;" horiz-adv-x="1351" d="M61 563q0 171 74 307.5t206 213.5t298 77q123 0 212 -42.5t159 -135.5v152h250v-1135h-250v147q-82 -93 -169.5 -133.5t-207.5 -40.5q-164 0 -294.5 75.5t-204 210.5t-73.5 304zM336 557q0 -149 93.5 -241.5t242.5 -92.5q151 0 240 95.5t89 240.5q0 155 -93.5 253.5 t-239.5 98.5t-239 -99.5t-93 -254.5zM444 1454q0 97 68 164.5t166 67.5q95 0 162 -68t67 -164t-67.5 -163.5t-163.5 -67.5q-97 0 -164.5 67t-67.5 164zM594 1454q0 -34 24 -58t58 -24t58 24t24 58t-24 58t-58 24t-58 -24t-24 -58z" />
<glyph unicode="&#xe6;" horiz-adv-x="2211" d="M61 563q0 167 77.5 304t212.5 215.5t300 78.5q109 0 190.5 -33t151.5 -106v113h250v-113q72 73 153 106t189 33q117 0 222 -44.5t180.5 -121t120 -182t44.5 -223.5q0 -63 -18 -141h-877q35 -106 120 -166t200 -60q144 0 240 113h297q-51 -155 -201.5 -259t-323.5 -104 q-114 0 -196 36t-150 114v-123h-250v123q-69 -82 -145 -116t-193 -34q-255 0 -424.5 168.5t-169.5 421.5zM336 573q0 -153 93 -251.5t237 -98.5q136 0 227.5 98t91.5 244q0 147 -93 246.5t-230 99.5q-136 0 -231 -98.5t-95 -239.5zM1243 690h623q-59 221 -307 221 q-238 0 -316 -221z" />
<glyph unicode="&#xe7;" horiz-adv-x="1310" d="M61 567q0 164 79 300.5t216.5 215t302.5 78.5q197 0 352 -107t220 -298h-307q-82 155 -265 155q-141 0 -232 -96.5t-91 -245.5t94.5 -247.5t235.5 -98.5q84 0 145.5 36t112.5 114h307q-67 -183 -206 -287t-325 -113l-45 -92q41 15 60 15q75 0 130.5 -61.5t55.5 -145.5 q0 -91 -54 -146t-142 -55q-78 0 -135.5 48t-69.5 124h125q26 -59 77 -59q32 0 56 27t24 65q0 37 -23 63.5t-57 26.5q-22 0 -38.5 -12t-38.5 -43l-107 53l80 196q-150 16 -273 98t-193.5 211.5t-70.5 280.5z" />
<glyph unicode="&#xe8;" horiz-adv-x="1310" d="M61 563q0 164 79.5 301.5t217 217t301.5 79.5q167 0 301 -78.5t209.5 -218t75.5 -313.5q0 -56 -10 -105h-879q25 -103 109 -163t205 -60q84 0 140.5 25.5t109.5 87.5h297q-37 -113 -122.5 -196.5t-194 -125t-224.5 -41.5q-128 0 -242 46t-195.5 124.5t-129.5 188 t-48 231.5zM281 1483l110 188l459 -274l-105 -160zM348 686h629q-26 109 -106.5 167t-206.5 58q-121 0 -202.5 -58t-113.5 -167z" />
<glyph unicode="&#xe9;" horiz-adv-x="1310" d="M61 563q0 164 79.5 301.5t217 217t301.5 79.5q167 0 301 -78.5t209.5 -218t75.5 -313.5q0 -56 -10 -105h-879q25 -103 109 -163t205 -60q84 0 140.5 25.5t109.5 87.5h297q-37 -113 -122.5 -196.5t-194 -125t-224.5 -41.5q-128 0 -242 46t-195.5 124.5t-129.5 188 t-48 231.5zM348 686h629q-26 109 -106.5 167t-206.5 58q-121 0 -202.5 -58t-113.5 -167zM469 1397l459 274l110 -188l-465 -246z" />
<glyph unicode="&#xea;" horiz-adv-x="1310" d="M61 563q0 164 79.5 301.5t217 217t301.5 79.5q167 0 301 -78.5t209.5 -218t75.5 -313.5q0 -56 -10 -105h-879q25 -103 109 -163t205 -60q84 0 140.5 25.5t109.5 87.5h297q-37 -113 -122.5 -196.5t-194 -125t-224.5 -41.5q-128 0 -242 46t-195.5 124.5t-129.5 188 t-48 231.5zM252 1292l301 283h219l297 -283h-297l-108 131l-111 -131h-301zM348 686h629q-26 109 -106.5 167t-206.5 58q-121 0 -202.5 -58t-113.5 -167z" />
<glyph unicode="&#xeb;" horiz-adv-x="1310" d="M61 563q0 164 79.5 301.5t217 217t301.5 79.5q167 0 301 -78.5t209.5 -218t75.5 -313.5q0 -56 -10 -105h-879q25 -103 109 -163t205 -60q84 0 140.5 25.5t109.5 87.5h297q-37 -113 -122.5 -196.5t-194 -125t-224.5 -41.5q-128 0 -242 46t-195.5 124.5t-129.5 188 t-48 231.5zM299 1298v273h272v-273h-272zM348 686h629q-26 109 -106.5 167t-206.5 58q-121 0 -202.5 -58t-113.5 -167zM729 1298v273h272v-273h-272z" />
<glyph unicode="&#xec;" horiz-adv-x="491" d="M-82 1483l111 188l458 -274l-104 -160zM111 0v1135h272v-1135h-272z" />
<glyph unicode="&#xed;" horiz-adv-x="491" d="M6 1397l459 274l110 -188l-464 -246zM111 0v1135h272v-1135h-272z" />
<glyph unicode="&#xee;" horiz-adv-x="491" d="M-160 1292l301 283h219l297 -283h-297l-108 131l-111 -131h-301zM111 0v1135h272v-1135h-272z" />
<glyph unicode="&#xef;" horiz-adv-x="491" d="M-113 1298v273h273v-273h-273zM111 0v1135h272v-1135h-272zM317 1298v273h273v-273h-273z" />
<glyph unicode="&#xf0;" horiz-adv-x="1310" d="M61 569q0 149 73 280t200 210.5t276 79.5q51 0 138 -19l-58 58q-57 57 -100 94l-178 -82l-82 94l159 76l-143 117l211 71q7 -5 15 -10.5t12 -8t6 -3.5l61 -47q1 0 39 -27l178 82l84 -100l-159 -72q260 -224 367.5 -403t107.5 -377q0 -168 -79.5 -308t-218 -220.5 t-304.5 -80.5q-163 0 -302.5 80t-221 217.5t-81.5 298.5zM336 571q0 -146 96 -247t234 -101q135 0 231 101t96 243q0 141 -96.5 242.5t-232.5 101.5q-134 0 -231 -100.5t-97 -239.5z" />
<glyph unicode="&#xf1;" horiz-adv-x="1228" d="M111 0v1135h251v-109q75 72 149.5 103.5t170.5 31.5q240 0 354 -164q46 -66 64 -151.5t18 -237.5v-608h-272v555q0 111 -14 183t-44.5 109t-67 50.5t-91.5 13.5q-135 0 -201 -104q-26 -41 -35.5 -99t-9.5 -173v-535h-272zM274 1458q54 54 100 75t111 21q24 0 108 -25.5 t112 -25.5q76 0 137 70l110 -166q-50 -60 -94 -86.5t-98 -26.5q-26 0 -120 26t-112 26q-37 0 -59.5 -8.5t-83.5 -43.5z" />
<glyph unicode="&#xf2;" horiz-adv-x="1310" d="M61 567q0 160 81 297t219.5 217t300.5 80q168 0 307.5 -79.5t219 -217.5t79.5 -305q0 -157 -81.5 -292t-221 -214.5t-301.5 -79.5q-163 0 -302 79.5t-220 216.5t-81 298zM283 1483l110 188l459 -274l-104 -160zM336 571q0 -146 96 -247t234 -101q135 0 231 101t96 243 q0 141 -96.5 242.5t-232.5 101.5q-134 0 -231 -100.5t-97 -239.5z" />
<glyph unicode="&#xf3;" horiz-adv-x="1310" d="M61 567q0 160 81 297t219.5 217t300.5 80q168 0 307.5 -79.5t219 -217.5t79.5 -305q0 -157 -81.5 -292t-221 -214.5t-301.5 -79.5q-163 0 -302 79.5t-220 216.5t-81 298zM336 571q0 -146 96 -247t234 -101q135 0 231 101t96 243q0 141 -96.5 242.5t-232.5 101.5 q-134 0 -231 -100.5t-97 -239.5zM471 1397l459 274l110 -188l-465 -246z" />
<glyph unicode="&#xf4;" horiz-adv-x="1310" d="M61 567q0 160 81 297t219.5 217t300.5 80q168 0 307.5 -79.5t219 -217.5t79.5 -305q0 -157 -81.5 -292t-221 -214.5t-301.5 -79.5q-163 0 -302 79.5t-220 216.5t-81 298zM254 1292l301 283h219l297 -283h-297l-108 131l-111 -131h-301zM336 571q0 -146 96 -247t234 -101 q135 0 231 101t96 243q0 141 -96.5 242.5t-232.5 101.5q-134 0 -231 -100.5t-97 -239.5z" />
<glyph unicode="&#xf5;" horiz-adv-x="1310" d="M61 567q0 160 81 297t219.5 217t300.5 80q168 0 307.5 -79.5t219 -217.5t79.5 -305q0 -157 -81.5 -292t-221 -214.5t-301.5 -79.5q-163 0 -302 79.5t-220 216.5t-81 298zM322 1458q54 54 100 75t110 21q24 0 108 -25.5t112 -25.5q76 0 137 70l110 -166q-50 -60 -94 -86.5 t-98 -26.5q-26 0 -120 26t-112 26q-37 0 -59.5 -8.5t-83.5 -43.5zM336 571q0 -146 96 -247t234 -101q135 0 231 101t96 243q0 141 -96.5 242.5t-232.5 101.5q-134 0 -231 -100.5t-97 -239.5z" />
<glyph unicode="&#xf6;" horiz-adv-x="1310" d="M61 567q0 160 81 297t219.5 217t300.5 80q168 0 307.5 -79.5t219 -217.5t79.5 -305q0 -157 -81.5 -292t-221 -214.5t-301.5 -79.5q-163 0 -302 79.5t-220 216.5t-81 298zM301 1298v273h272v-273h-272zM336 571q0 -146 96 -247t234 -101q135 0 231 101t96 243 q0 141 -96.5 242.5t-232.5 101.5q-134 0 -231 -100.5t-97 -239.5zM731 1298v273h273v-273h-273z" />
<glyph unicode="&#xf7;" horiz-adv-x="1228" d="M111 371v282h1007v-282h-1007zM483 133q0 55 38.5 93t92.5 38t92.5 -38t38.5 -93q0 -54 -38.5 -92.5t-92.5 -38.5t-92.5 38.5t-38.5 92.5zM483 891q0 54 38.5 92.5t92.5 38.5t92.5 -38.5t38.5 -92.5q0 -55 -38.5 -93t-92.5 -38t-92.5 38t-38.5 93z" />
<glyph unicode="&#xf8;" horiz-adv-x="1351" d="M61 567q0 161 81.5 298t221.5 216.5t304 79.5q116 0 223 -43l106 158l177 -119l-103 -149q199 -184 199 -441q0 -121 -47.5 -231t-128.5 -189.5t-192.5 -126.5t-233.5 -47q-133 0 -258 58l-115 -168l-174 117l117 172q-85 79 -131 187.5t-46 227.5zM336 569 q0 -102 55 -190l352 522q-39 10 -77 10q-135 0 -232.5 -100.5t-97.5 -241.5zM555 244q59 -21 111 -21q136 0 232.5 100.5t96.5 241.5q0 121 -73 219z" />
<glyph unicode="&#xf9;" horiz-adv-x="1228" d="M111 526v609h272v-555q0 -110 14.5 -182.5t44.5 -109.5t66.5 -51t89.5 -14q68 0 122 27.5t85 77.5q24 39 33.5 99t9.5 173v535h272v-1135h-252v109q-77 -75 -149.5 -105.5t-175.5 -30.5q-432 0 -432 553zM238 1483l110 188l459 -274l-105 -160z" />
<glyph unicode="&#xfa;" horiz-adv-x="1228" d="M111 526v609h272v-555q0 -110 14.5 -182.5t44.5 -109.5t66.5 -51t89.5 -14q68 0 122 27.5t85 77.5q24 39 33.5 99t9.5 173v535h272v-1135h-252v109q-77 -75 -149.5 -105.5t-175.5 -30.5q-432 0 -432 553zM426 1397l459 274l110 -188l-465 -246z" />
<glyph unicode="&#xfb;" horiz-adv-x="1228" d="M111 526v609h272v-555q0 -110 14.5 -182.5t44.5 -109.5t66.5 -51t89.5 -14q68 0 122 27.5t85 77.5q24 39 33.5 99t9.5 173v535h272v-1135h-252v109q-77 -75 -149.5 -105.5t-175.5 -30.5q-432 0 -432 553zM209 1292l301 283h219l297 -283h-297l-108 131l-111 -131h-301z " />
<glyph unicode="&#xfc;" horiz-adv-x="1228" d="M111 526v609h272v-555q0 -110 14.5 -182.5t44.5 -109.5t66.5 -51t89.5 -14q68 0 122 27.5t85 77.5q24 39 33.5 99t9.5 173v535h272v-1135h-252v109q-77 -75 -149.5 -105.5t-175.5 -30.5q-432 0 -432 553zM256 1298v273h272v-273h-272zM686 1298v273h272v-273h-272z" />
<glyph unicode="&#xfd;" horiz-adv-x="1187" d="M12 1135h312l251 -736l275 736h313l-655 -1514h-293l213 485zM397 1397l459 274l111 -188l-465 -246z" />
<glyph unicode="&#xfe;" horiz-adv-x="1351" d="M111 -379v1892h272v-499q135 147 352 147q162 0 290.5 -76.5t200.5 -212t72 -305.5q0 -171 -72 -306.5t-200.5 -211.5t-290.5 -76q-216 0 -352 148v-500h-272zM367 571q0 -151 94 -249.5t237 -98.5q138 0 232 99t94 245t-94 245t-232 99q-141 0 -236 -97.5t-95 -242.5z " />
<glyph unicode="&#xff;" horiz-adv-x="1187" d="M12 1135h312l251 -736l275 736h313l-655 -1514h-293l213 485zM227 1298v273h273v-273h-273zM657 1298v273h273v-273h-273z" />
<glyph unicode="&#x152;" horiz-adv-x="2170" d="M78 756q0 166 59 311.5t160.5 249t244 163.5t304.5 60q309 0 479 -194v167h731v-268h-446v-356h424v-268h-424v-353h446v-268h-731v166q-85 -94 -205.5 -143.5t-263.5 -49.5q-163 0 -307.5 60t-247.5 163.5t-163 249t-60 310.5zM360 748q0 -214 141.5 -359t350.5 -145 q210 0 346.5 144t136.5 366t-138 369t-347 147q-141 0 -254 -70t-174.5 -189t-61.5 -263z" />
<glyph unicode="&#x153;" horiz-adv-x="2211" d="M61 567q0 122 46.5 232.5t125.5 189.5t189.5 125.5t232.5 46.5q144 0 255 -55.5t202 -171.5q98 120 204.5 173.5t244.5 53.5q170 0 304 -76t207.5 -208t73.5 -295q0 -67 -10 -136h-879q34 -103 118 -163t196 -60q71 0 139.5 31t108.5 80h290q-60 -164 -206 -262.5 t-330 -98.5q-145 0 -264 60t-197 172q-160 -232 -448 -232q-170 0 -308 77.5t-216.5 213.5t-78.5 303zM336 575q0 -152 96 -252t242 -100q137 0 229 98t92 244q0 148 -94.5 247t-234.5 99q-138 0 -234 -98t-96 -238zM1245 686h619q-64 225 -308 225q-234 0 -311 -225z" />
<glyph unicode="&#x178;" horiz-adv-x="1269" d="M6 1513h303l336 -696l334 696h303l-498 -954v-559h-280v559zM285 1657v272h272v-272h-272zM715 1657v272h272v-272h-272z" />
<glyph unicode="&#x2c6;" horiz-adv-x="1105" d="M145 1292l301 283h220l297 -283h-297l-109 131l-111 -131h-301z" />
<glyph unicode="&#x2dc;" horiz-adv-x="983" d="M152 1458q54 54 100 75t110 21q24 0 108 -25.5t112 -25.5q76 0 137 70l110 -166q-50 -60 -94 -86.5t-98 -26.5q-26 0 -119.5 26t-111.5 26q-37 0 -60.5 -8.5t-83.5 -43.5z" />
<glyph unicode="&#x2000;" horiz-adv-x="1025" />
<glyph unicode="&#x2001;" horiz-adv-x="2050" />
<glyph unicode="&#x2002;" horiz-adv-x="1025" />
<glyph unicode="&#x2003;" horiz-adv-x="2050" />
<glyph unicode="&#x2004;" horiz-adv-x="683" />
<glyph unicode="&#x2005;" horiz-adv-x="512" />
<glyph unicode="&#x2006;" horiz-adv-x="341" />
<glyph unicode="&#x2007;" horiz-adv-x="341" />
<glyph unicode="&#x2008;" horiz-adv-x="256" />
<glyph unicode="&#x2009;" horiz-adv-x="410" />
<glyph unicode="&#x200a;" horiz-adv-x="113" />
<glyph unicode="&#x2010;" horiz-adv-x="860" d="M152 469v242h567v-242h-567z" />
<glyph unicode="&#x2011;" horiz-adv-x="860" d="M152 469v242h567v-242h-567z" />
<glyph unicode="&#x2012;" horiz-adv-x="860" d="M152 469v242h567v-242h-567z" />
<glyph unicode="&#x2013;" horiz-adv-x="1024" d="M0 469v242h1024v-242h-1024z" />
<glyph unicode="&#x2014;" horiz-adv-x="2048" d="M0 469v242h2048v-242h-2048z" />
<glyph unicode="&#x2018;" horiz-adv-x="573" d="M147 954v287q0 124 74 198t199 74v-137q-66 -12 -93.5 -38t-27.5 -78q0 -21 2 -33h119v-273h-273z" />
<glyph unicode="&#x2019;" horiz-adv-x="573" d="M147 954v138q65 12 93 40t28 82q0 23 -2 37h-119v262h273v-286q0 -123 -71.5 -198t-201.5 -75z" />
<glyph unicode="&#x201a;" horiz-adv-x="573" d="M143 0v262h273v-276q0 -123 -71 -198t-202 -75v137q65 12 93 39t28 76q0 23 -2 35h-119z" />
<glyph unicode="&#x201c;" horiz-adv-x="983" d="M143 954v287q0 124 74 198t199 74v-137q-66 -12 -93.5 -38.5t-27.5 -80.5q0 -18 2 -30h119v-273h-273zM567 954v287q0 124 74 198t199 74v-137q-65 -12 -93 -38.5t-28 -75.5q0 -23 2 -35h119v-273h-273z" />
<glyph unicode="&#x201d;" horiz-adv-x="983" d="M143 954v138q63 12 92 41t29 81q0 23 -2 37h-119v262h273v-286q0 -122 -71.5 -197.5t-201.5 -75.5zM567 954v138q65 12 93 40t28 82q0 23 -2 37h-119v262h273v-286q0 -123 -72 -198t-201 -75z" />
<glyph unicode="&#x201e;" horiz-adv-x="983" d="M143 0v262h273v-276q0 -123 -71 -198t-202 -75v137q65 12 93 39t28 76q0 23 -2 35h-119zM567 0v262h273v-276q0 -122 -71.5 -197.5t-201.5 -75.5v137q65 12 93 39t28 76q0 23 -2 35h-119z" />
<glyph unicode="&#x2022;" horiz-adv-x="1228" d="M274 647q0 141 101.5 242.5t242.5 101.5q143 0 245 -101t102 -243q0 -145 -101.5 -245.5t-249.5 -100.5q-138 0 -239 102.5t-101 243.5z" />
<glyph unicode="&#x2026;" horiz-adv-x="2048" d="M205 0v262h272v-262h-272zM885 0v262h272v-262h-272zM1567 0v262h274v-262h-274z" />
<glyph unicode="&#x202f;" horiz-adv-x="410" />
<glyph unicode="&#x2039;" horiz-adv-x="491" d="M74 489v205l284 267v-252l-137 -117l137 -119v-252z" />
<glyph unicode="&#x203a;" horiz-adv-x="491" d="M150 221v252l137 119l-137 117v252l284 -267v-205z" />
<glyph unicode="&#x205f;" horiz-adv-x="512" />
<glyph unicode="&#x20ac;" d="M-68 805l50 180h161q68 291 220.5 421t406.5 130q126 0 224 -29.5t225 -105.5l-80 -211q-200 119 -375 119q-139 0 -221 -76t-129 -248h645l-68 -180h-592v-92h557l-69 -181h-477q37 -149 131.5 -233t234.5 -84q55 0 120.5 18t178.5 64v-252q-92 -37 -164.5 -52.5 t-162.5 -15.5q-188 0 -338 95q-106 65 -167 169t-102 291h-207l50 181h141v39q0 30 2 53h-195z" />
<glyph unicode="&#x2122;" horiz-adv-x="2048" d="M111 1317v196h604v-196h-187v-688h-231v688h-186zM844 629v884h293l256 -600l252 600h292v-884h-231v538l-225 -538h-181l-225 538v-538h-231z" />
<glyph unicode="&#x25fc;" horiz-adv-x="1136" d="M0 0v1137h1137v-1137h-1137z" />
<glyph unicode="&#xfb03;" horiz-adv-x="1630" d="M20 887v227h99q22 213 119.5 306t255.5 93q34 0 67 -4v-258h-26q-79 0 -110.5 -30t-33.5 -107h293q22 213 119.5 306t255.5 93q34 0 67 -4v-258h-26q-79 0 -110.5 -30t-33.5 -107h154v-227h-154v-887h-272v887h-293v-887h-272v887h-99zM1249 0v1135h273v-1135h-273z M1251 1298v273h273v-273h-273z" />
<hkern u1="&#x2c;" u2="&#x201d;" k="51" />
<hkern u1="&#x2c;" u2="&#x2019;" k="61" />
<hkern u1="&#x2c;" u2="&#x31;" k="164" />
<hkern u1="&#x2d;" u2="&#x178;" k="143" />
<hkern u1="&#x2d;" u2="&#xc6;" k="113" />
<hkern u1="&#x2d;" u2="&#xc5;" k="31" />
<hkern u1="&#x2d;" u2="&#xc4;" k="31" />
<hkern u1="&#x2d;" u2="Y" k="143" />
<hkern u1="&#x2d;" u2="W" k="51" />
<hkern u1="&#x2d;" u2="V" k="92" />
<hkern u1="&#x2d;" u2="T" k="51" />
<hkern u1="&#x2d;" u2="A" k="31" />
<hkern u1="&#x2e;" u2="&#x201d;" k="51" />
<hkern u1="&#x2e;" u2="&#x2019;" k="61" />
<hkern u1="&#x2e;" u2="&#x31;" k="164" />
<hkern u1="&#x31;" u2="&#x2e;" k="92" />
<hkern u1="&#x31;" u2="&#x2c;" k="92" />
<hkern u1="&#x37;" u2="&#x3a;" k="123" />
<hkern u1="&#x37;" u2="&#x2e;" k="195" />
<hkern u1="&#x37;" u2="&#x2c;" k="195" />
<hkern u1="A" u2="&#x2039;" k="31" />
<hkern u1="A" u2="&#x201d;" k="154" />
<hkern u1="A" u2="&#x2019;" k="154" />
<hkern u1="A" u2="&#x178;" k="174" />
<hkern u1="A" u2="&#xff;" k="92" />
<hkern u1="A" u2="&#xfc;" k="31" />
<hkern u1="A" u2="&#xfb;" k="31" />
<hkern u1="A" u2="&#xf8;" k="51" />
<hkern u1="A" u2="&#xf6;" k="51" />
<hkern u1="A" u2="&#xf2;" k="51" />
<hkern u1="A" u2="&#xeb;" k="51" />
<hkern u1="A" u2="&#xe7;" k="51" />
<hkern u1="A" u2="&#xe5;" k="41" />
<hkern u1="A" u2="&#xe4;" k="41" />
<hkern u1="A" u2="&#xdc;" k="61" />
<hkern u1="A" u2="&#xdb;" k="61" />
<hkern u1="A" u2="&#xd8;" k="72" />
<hkern u1="A" u2="&#xd6;" k="72" />
<hkern u1="A" u2="&#xd2;" k="72" />
<hkern u1="A" u2="&#xc7;" k="72" />
<hkern u1="A" u2="&#xab;" k="31" />
<hkern u1="A" u2="y" k="92" />
<hkern u1="A" u2="w" k="82" />
<hkern u1="A" u2="v" k="82" />
<hkern u1="A" u2="u" k="31" />
<hkern u1="A" u2="t" k="20" />
<hkern u1="A" u2="q" k="41" />
<hkern u1="A" u2="o" k="51" />
<hkern u1="A" u2="g" k="41" />
<hkern u1="A" u2="e" k="51" />
<hkern u1="A" u2="d" k="41" />
<hkern u1="A" u2="c" k="51" />
<hkern u1="A" u2="a" k="41" />
<hkern u1="A" u2="Y" k="174" />
<hkern u1="A" u2="W" k="113" />
<hkern u1="A" u2="V" k="154" />
<hkern u1="A" u2="U" k="61" />
<hkern u1="A" u2="T" k="82" />
<hkern u1="A" u2="Q" k="72" />
<hkern u1="A" u2="O" k="72" />
<hkern u1="A" u2="G" k="72" />
<hkern u1="A" u2="C" k="72" />
<hkern u1="A" u2="&#x2e;" k="-41" />
<hkern u1="A" u2="&#x2d;" k="31" />
<hkern u1="A" u2="&#x2c;" k="-41" />
<hkern u1="B" u2="&#x178;" k="82" />
<hkern u1="B" u2="&#xc6;" k="72" />
<hkern u1="B" u2="&#xc5;" k="41" />
<hkern u1="B" u2="&#xc4;" k="41" />
<hkern u1="B" u2="&#xc3;" k="41" />
<hkern u1="B" u2="&#xc2;" k="41" />
<hkern u1="B" u2="&#xc1;" k="41" />
<hkern u1="B" u2="&#xc0;" k="41" />
<hkern u1="B" u2="Y" k="82" />
<hkern u1="B" u2="W" k="31" />
<hkern u1="B" u2="V" k="72" />
<hkern u1="B" u2="A" k="41" />
<hkern u1="C" u2="&#xc6;" k="82" />
<hkern u1="C" u2="&#xc5;" k="31" />
<hkern u1="C" u2="&#xc4;" k="31" />
<hkern u1="C" u2="&#xc3;" k="31" />
<hkern u1="C" u2="&#xc2;" k="31" />
<hkern u1="C" u2="&#xc1;" k="31" />
<hkern u1="C" u2="&#xc0;" k="31" />
<hkern u1="C" u2="A" k="31" />
<hkern u1="D" u2="&#x178;" k="102" />
<hkern u1="D" u2="&#xc5;" k="82" />
<hkern u1="D" u2="&#xc4;" k="82" />
<hkern u1="D" u2="&#xc3;" k="82" />
<hkern u1="D" u2="&#xc2;" k="82" />
<hkern u1="D" u2="&#xc1;" k="82" />
<hkern u1="D" u2="&#xc0;" k="82" />
<hkern u1="D" u2="Y" k="102" />
<hkern u1="D" u2="X" k="72" />
<hkern u1="D" u2="W" k="41" />
<hkern u1="D" u2="V" k="82" />
<hkern u1="D" u2="T" k="51" />
<hkern u1="D" u2="J" k="31" />
<hkern u1="D" u2="A" k="82" />
<hkern u1="F" u2="&#x153;" k="20" />
<hkern u1="F" u2="&#x152;" k="20" />
<hkern u1="F" u2="&#xfa;" k="20" />
<hkern u1="F" u2="&#xf8;" k="20" />
<hkern u1="F" u2="&#xe6;" k="20" />
<hkern u1="F" u2="&#xc6;" k="20" />
<hkern u1="F" u2="&#xc5;" k="113" />
<hkern u1="F" u2="&#xc4;" k="113" />
<hkern u1="F" u2="u" k="20" />
<hkern u1="F" u2="r" k="20" />
<hkern u1="F" u2="o" k="20" />
<hkern u1="F" u2="e" k="20" />
<hkern u1="F" u2="a" k="20" />
<hkern u1="F" u2="J" k="113" />
<hkern u1="F" u2="A" k="113" />
<hkern u1="F" u2="&#x2e;" k="123" />
<hkern u1="F" u2="&#x2c;" k="123" />
<hkern u1="G" u2="&#x178;" k="102" />
<hkern u1="G" u2="&#xc6;" k="123" />
<hkern u1="G" u2="&#xc5;" k="72" />
<hkern u1="G" u2="&#xc4;" k="72" />
<hkern u1="G" u2="&#xc3;" k="72" />
<hkern u1="G" u2="&#xc2;" k="72" />
<hkern u1="G" u2="&#xc1;" k="72" />
<hkern u1="G" u2="&#xc0;" k="72" />
<hkern u1="G" u2="Y" k="102" />
<hkern u1="G" u2="W" k="41" />
<hkern u1="G" u2="V" k="82" />
<hkern u1="G" u2="T" k="51" />
<hkern u1="G" u2="A" k="72" />
<hkern u1="J" u2="&#xc6;" k="82" />
<hkern u1="J" u2="&#xc5;" k="51" />
<hkern u1="J" u2="&#xc4;" k="51" />
<hkern u1="J" u2="A" k="51" />
<hkern u1="K" u2="&#x152;" k="102" />
<hkern u1="K" u2="&#xff;" k="123" />
<hkern u1="K" u2="&#xfd;" k="123" />
<hkern u1="K" u2="&#xfc;" k="92" />
<hkern u1="K" u2="&#xfb;" k="92" />
<hkern u1="K" u2="&#xf8;" k="113" />
<hkern u1="K" u2="&#xf6;" k="113" />
<hkern u1="K" u2="&#xeb;" k="113" />
<hkern u1="K" u2="&#xea;" k="113" />
<hkern u1="K" u2="&#xe9;" k="113" />
<hkern u1="K" u2="&#xe8;" k="113" />
<hkern u1="K" u2="&#xe6;" k="102" />
<hkern u1="K" u2="&#xe5;" k="102" />
<hkern u1="K" u2="&#xe4;" k="102" />
<hkern u1="K" u2="&#xd8;" k="92" />
<hkern u1="K" u2="&#xd6;" k="92" />
<hkern u1="K" u2="&#xc7;" k="92" />
<hkern u1="K" u2="y" k="123" />
<hkern u1="K" u2="u" k="92" />
<hkern u1="K" u2="o" k="113" />
<hkern u1="K" u2="e" k="113" />
<hkern u1="K" u2="a" k="102" />
<hkern u1="K" u2="T" k="-41" />
<hkern u1="K" u2="S" k="51" />
<hkern u1="K" u2="O" k="92" />
<hkern u1="K" u2="G" k="92" />
<hkern u1="K" u2="C" k="92" />
<hkern u1="K" u2="&#x2d;" k="143" />
<hkern u1="L" u2="&#x201d;" k="143" />
<hkern u1="L" u2="&#x2019;" k="143" />
<hkern u1="L" u2="&#x178;" k="164" />
<hkern u1="L" u2="&#xff;" k="102" />
<hkern u1="L" u2="&#xfd;" k="102" />
<hkern u1="L" u2="&#xdd;" k="164" />
<hkern u1="L" u2="&#xdc;" k="20" />
<hkern u1="L" u2="&#xdb;" k="20" />
<hkern u1="L" u2="&#xda;" k="20" />
<hkern u1="L" u2="&#xd9;" k="20" />
<hkern u1="L" u2="&#xd8;" k="41" />
<hkern u1="L" u2="&#xd6;" k="41" />
<hkern u1="L" u2="&#xd5;" k="41" />
<hkern u1="L" u2="&#xd4;" k="41" />
<hkern u1="L" u2="&#xd3;" k="41" />
<hkern u1="L" u2="&#xd2;" k="41" />
<hkern u1="L" u2="&#xc7;" k="41" />
<hkern u1="L" u2="&#xc6;" k="-41" />
<hkern u1="L" u2="&#xc5;" k="-51" />
<hkern u1="L" u2="&#xc4;" k="-51" />
<hkern u1="L" u2="&#xc3;" k="-51" />
<hkern u1="L" u2="&#xc2;" k="-51" />
<hkern u1="L" u2="&#xc1;" k="-51" />
<hkern u1="L" u2="&#xc0;" k="-51" />
<hkern u1="L" u2="y" k="102" />
<hkern u1="L" u2="Y" k="164" />
<hkern u1="L" u2="W" k="113" />
<hkern u1="L" u2="V" k="154" />
<hkern u1="L" u2="U" k="20" />
<hkern u1="L" u2="T" k="82" />
<hkern u1="L" u2="S" k="-31" />
<hkern u1="L" u2="O" k="41" />
<hkern u1="L" u2="G" k="41" />
<hkern u1="L" u2="C" k="41" />
<hkern u1="L" u2="A" k="-51" />
<hkern u1="L" u2="&#x2d;" k="51" />
<hkern u1="N" u2="&#xfc;" k="-20" />
<hkern u1="N" u2="&#xfb;" k="-20" />
<hkern u1="N" u2="&#xfa;" k="-20" />
<hkern u1="N" u2="&#xf9;" k="-20" />
<hkern u1="N" u2="&#xc6;" k="20" />
<hkern u1="N" u2="u" k="-20" />
<hkern u1="N" u2="&#x2e;" k="-20" />
<hkern u1="N" u2="&#x2c;" k="-20" />
<hkern u1="O" u2="&#x178;" k="113" />
<hkern u1="O" u2="&#xc6;" k="143" />
<hkern u1="O" u2="&#xc5;" k="82" />
<hkern u1="O" u2="&#xc4;" k="82" />
<hkern u1="O" u2="&#xc3;" k="82" />
<hkern u1="O" u2="&#xc1;" k="82" />
<hkern u1="O" u2="&#xc0;" k="82" />
<hkern u1="O" u2="Y" k="113" />
<hkern u1="O" u2="X" k="72" />
<hkern u1="O" u2="W" k="51" />
<hkern u1="O" u2="V" k="82" />
<hkern u1="O" u2="T" k="61" />
<hkern u1="O" u2="A" k="82" />
<hkern u1="P" u2="&#x153;" k="41" />
<hkern u1="P" u2="&#xf8;" k="41" />
<hkern u1="P" u2="&#xf6;" k="41" />
<hkern u1="P" u2="&#xf4;" k="41" />
<hkern u1="P" u2="&#xeb;" k="41" />
<hkern u1="P" u2="&#xea;" k="41" />
<hkern u1="P" u2="&#xe8;" k="41" />
<hkern u1="P" u2="&#xe6;" k="41" />
<hkern u1="P" u2="&#xe5;" k="41" />
<hkern u1="P" u2="&#xe4;" k="41" />
<hkern u1="P" u2="&#xe1;" k="41" />
<hkern u1="P" u2="&#xc6;" k="225" />
<hkern u1="P" u2="&#xc5;" k="123" />
<hkern u1="P" u2="&#xc4;" k="123" />
<hkern u1="P" u2="&#xc1;" k="123" />
<hkern u1="P" u2="o" k="41" />
<hkern u1="P" u2="e" k="41" />
<hkern u1="P" u2="a" k="41" />
<hkern u1="P" u2="J" k="143" />
<hkern u1="P" u2="A" k="123" />
<hkern u1="P" u2="&#x2e;" k="195" />
<hkern u1="P" u2="&#x2d;" k="41" />
<hkern u1="P" u2="&#x2c;" k="195" />
<hkern u1="R" u2="&#x178;" k="31" />
<hkern u1="R" u2="&#xff;" k="-31" />
<hkern u1="R" u2="&#xfc;" k="-20" />
<hkern u1="R" u2="&#xfb;" k="-20" />
<hkern u1="R" u2="&#xfa;" k="-20" />
<hkern u1="R" u2="&#xf9;" k="-20" />
<hkern u1="R" u2="&#xdc;" k="-20" />
<hkern u1="R" u2="&#xdb;" k="-20" />
<hkern u1="R" u2="&#xda;" k="-20" />
<hkern u1="R" u2="&#xd9;" k="-20" />
<hkern u1="R" u2="y" k="-31" />
<hkern u1="R" u2="u" k="-20" />
<hkern u1="R" u2="Y" k="31" />
<hkern u1="R" u2="V" k="20" />
<hkern u1="R" u2="U" k="-20" />
<hkern u1="R" u2="T" k="-20" />
<hkern u1="R" u2="&#x2d;" k="31" />
<hkern u1="S" u2="&#x178;" k="51" />
<hkern u1="S" u2="&#xc6;" k="61" />
<hkern u1="S" u2="&#xc5;" k="31" />
<hkern u1="S" u2="&#xc4;" k="31" />
<hkern u1="S" u2="&#xc3;" k="31" />
<hkern u1="S" u2="&#xc2;" k="31" />
<hkern u1="S" u2="&#xc1;" k="31" />
<hkern u1="S" u2="&#xc0;" k="31" />
<hkern u1="S" u2="t" k="-20" />
<hkern u1="S" u2="Y" k="51" />
<hkern u1="S" u2="W" k="20" />
<hkern u1="S" u2="V" k="41" />
<hkern u1="S" u2="A" k="31" />
<hkern u1="T" u2="&#x2039;" k="51" />
<hkern u1="T" u2="&#x178;" k="-61" />
<hkern u1="T" u2="&#x153;" k="72" />
<hkern u1="T" u2="&#x152;" k="31" />
<hkern u1="T" u2="&#xff;" k="41" />
<hkern u1="T" u2="&#xfd;" k="61" />
<hkern u1="T" u2="&#xfc;" k="31" />
<hkern u1="T" u2="&#xfb;" k="31" />
<hkern u1="T" u2="&#xfa;" k="41" />
<hkern u1="T" u2="&#xf9;" k="31" />
<hkern u1="T" u2="&#xf8;" k="72" />
<hkern u1="T" u2="&#xf6;" k="41" />
<hkern u1="T" u2="&#xf5;" k="41" />
<hkern u1="T" u2="&#xf4;" k="41" />
<hkern u1="T" u2="&#xf3;" k="51" />
<hkern u1="T" u2="&#xf2;" k="41" />
<hkern u1="T" u2="&#xeb;" k="41" />
<hkern u1="T" u2="&#xea;" k="41" />
<hkern u1="T" u2="&#xe9;" k="51" />
<hkern u1="T" u2="&#xe8;" k="41" />
<hkern u1="T" u2="&#xe7;" k="72" />
<hkern u1="T" u2="&#xe6;" k="61" />
<hkern u1="T" u2="&#xe5;" k="31" />
<hkern u1="T" u2="&#xe4;" k="31" />
<hkern u1="T" u2="&#xe3;" k="31" />
<hkern u1="T" u2="&#xe2;" k="31" />
<hkern u1="T" u2="&#xe1;" k="51" />
<hkern u1="T" u2="&#xe0;" k="31" />
<hkern u1="T" u2="&#xd8;" k="41" />
<hkern u1="T" u2="&#xd6;" k="41" />
<hkern u1="T" u2="&#xd5;" k="41" />
<hkern u1="T" u2="&#xd4;" k="41" />
<hkern u1="T" u2="&#xd3;" k="41" />
<hkern u1="T" u2="&#xd2;" k="41" />
<hkern u1="T" u2="&#xc7;" k="41" />
<hkern u1="T" u2="&#xc6;" k="102" />
<hkern u1="T" u2="&#xc5;" k="82" />
<hkern u1="T" u2="&#xc4;" k="82" />
<hkern u1="T" u2="&#xc3;" k="82" />
<hkern u1="T" u2="&#xc2;" k="82" />
<hkern u1="T" u2="&#xc1;" k="82" />
<hkern u1="T" u2="&#xc0;" k="82" />
<hkern u1="T" u2="&#xab;" k="51" />
<hkern u1="T" u2="y" k="92" />
<hkern u1="T" u2="w" k="92" />
<hkern u1="T" u2="v" k="82" />
<hkern u1="T" u2="u" k="51" />
<hkern u1="T" u2="s" k="51" />
<hkern u1="T" u2="r" k="41" />
<hkern u1="T" u2="o" k="72" />
<hkern u1="T" u2="g" k="61" />
<hkern u1="T" u2="e" k="72" />
<hkern u1="T" u2="c" k="72" />
<hkern u1="T" u2="a" k="72" />
<hkern u1="T" u2="Y" k="-61" />
<hkern u1="T" u2="W" k="-61" />
<hkern u1="T" u2="V" k="-61" />
<hkern u1="T" u2="O" k="41" />
<hkern u1="T" u2="J" k="82" />
<hkern u1="T" u2="G" k="41" />
<hkern u1="T" u2="C" k="41" />
<hkern u1="T" u2="A" k="82" />
<hkern u1="T" u2="&#x3b;" k="72" />
<hkern u1="T" u2="&#x3a;" k="72" />
<hkern u1="T" u2="&#x2e;" k="51" />
<hkern u1="T" u2="&#x2d;" k="51" />
<hkern u1="T" u2="&#x2c;" k="51" />
<hkern u1="U" u2="&#xc6;" k="113" />
<hkern u1="U" u2="&#xc5;" k="72" />
<hkern u1="U" u2="&#xc4;" k="72" />
<hkern u1="U" u2="&#xc3;" k="72" />
<hkern u1="U" u2="&#xc2;" k="72" />
<hkern u1="U" u2="&#xc1;" k="72" />
<hkern u1="U" u2="&#xc0;" k="72" />
<hkern u1="U" u2="r" k="-20" />
<hkern u1="U" u2="p" k="-20" />
<hkern u1="U" u2="n" k="-20" />
<hkern u1="U" u2="m" k="-20" />
<hkern u1="U" u2="A" k="72" />
<hkern u1="U" u2="&#x2e;" k="20" />
<hkern u1="U" u2="&#x2c;" k="20" />
<hkern u1="V" u2="&#x2039;" k="92" />
<hkern u1="V" u2="&#x153;" k="72" />
<hkern u1="V" u2="&#x152;" k="31" />
<hkern u1="V" u2="&#xfd;" k="20" />
<hkern u1="V" u2="&#xfc;" k="41" />
<hkern u1="V" u2="&#xfb;" k="41" />
<hkern u1="V" u2="&#xfa;" k="61" />
<hkern u1="V" u2="&#xf9;" k="41" />
<hkern u1="V" u2="&#xf8;" k="123" />
<hkern u1="V" u2="&#xf6;" k="61" />
<hkern u1="V" u2="&#xf5;" k="61" />
<hkern u1="V" u2="&#xf4;" k="61" />
<hkern u1="V" u2="&#xf3;" k="92" />
<hkern u1="V" u2="&#xf2;" k="61" />
<hkern u1="V" u2="&#xeb;" k="61" />
<hkern u1="V" u2="&#xea;" k="61" />
<hkern u1="V" u2="&#xe9;" k="92" />
<hkern u1="V" u2="&#xe8;" k="61" />
<hkern u1="V" u2="&#xe6;" k="61" />
<hkern u1="V" u2="&#xe5;" k="61" />
<hkern u1="V" u2="&#xe4;" k="61" />
<hkern u1="V" u2="&#xe3;" k="61" />
<hkern u1="V" u2="&#xe2;" k="61" />
<hkern u1="V" u2="&#xe1;" k="82" />
<hkern u1="V" u2="&#xe0;" k="61" />
<hkern u1="V" u2="&#xd8;" k="72" />
<hkern u1="V" u2="&#xd6;" k="72" />
<hkern u1="V" u2="&#xd5;" k="72" />
<hkern u1="V" u2="&#xd4;" k="72" />
<hkern u1="V" u2="&#xd3;" k="72" />
<hkern u1="V" u2="&#xd2;" k="72" />
<hkern u1="V" u2="&#xc7;" k="72" />
<hkern u1="V" u2="&#xc6;" k="102" />
<hkern u1="V" u2="&#xc5;" k="143" />
<hkern u1="V" u2="&#xc4;" k="143" />
<hkern u1="V" u2="&#xc3;" k="143" />
<hkern u1="V" u2="&#xc2;" k="143" />
<hkern u1="V" u2="&#xc1;" k="143" />
<hkern u1="V" u2="&#xc0;" k="143" />
<hkern u1="V" u2="&#xab;" k="92" />
<hkern u1="V" u2="y" k="31" />
<hkern u1="V" u2="u" k="82" />
<hkern u1="V" u2="r" k="72" />
<hkern u1="V" u2="o" k="123" />
<hkern u1="V" u2="g" k="113" />
<hkern u1="V" u2="e" k="123" />
<hkern u1="V" u2="a" k="113" />
<hkern u1="V" u2="T" k="-61" />
<hkern u1="V" u2="S" k="41" />
<hkern u1="V" u2="O" k="72" />
<hkern u1="V" u2="G" k="72" />
<hkern u1="V" u2="C" k="72" />
<hkern u1="V" u2="A" k="143" />
<hkern u1="V" u2="&#x3b;" k="102" />
<hkern u1="V" u2="&#x3a;" k="102" />
<hkern u1="V" u2="&#x2e;" k="164" />
<hkern u1="V" u2="&#x2d;" k="102" />
<hkern u1="V" u2="&#x2c;" k="164" />
<hkern u1="W" u2="&#x2039;" k="51" />
<hkern u1="W" u2="&#x153;" k="72" />
<hkern u1="W" u2="&#x152;" k="31" />
<hkern u1="W" u2="&#xfc;" k="20" />
<hkern u1="W" u2="&#xfb;" k="20" />
<hkern u1="W" u2="&#xfa;" k="41" />
<hkern u1="W" u2="&#xf9;" k="20" />
<hkern u1="W" u2="&#xf8;" k="72" />
<hkern u1="W" u2="&#xf6;" k="31" />
<hkern u1="W" u2="&#xf5;" k="31" />
<hkern u1="W" u2="&#xf4;" k="31" />
<hkern u1="W" u2="&#xf3;" k="51" />
<hkern u1="W" u2="&#xf2;" k="31" />
<hkern u1="W" u2="&#xeb;" k="31" />
<hkern u1="W" u2="&#xea;" k="31" />
<hkern u1="W" u2="&#xe9;" k="51" />
<hkern u1="W" u2="&#xe8;" k="31" />
<hkern u1="W" u2="&#xe6;" k="61" />
<hkern u1="W" u2="&#xe5;" k="31" />
<hkern u1="W" u2="&#xe4;" k="31" />
<hkern u1="W" u2="&#xe3;" k="31" />
<hkern u1="W" u2="&#xe2;" k="31" />
<hkern u1="W" u2="&#xe1;" k="51" />
<hkern u1="W" u2="&#xe0;" k="31" />
<hkern u1="W" u2="&#xd8;" k="31" />
<hkern u1="W" u2="&#xd6;" k="31" />
<hkern u1="W" u2="&#xc7;" k="31" />
<hkern u1="W" u2="&#xc6;" k="102" />
<hkern u1="W" u2="&#xc5;" k="102" />
<hkern u1="W" u2="&#xc4;" k="102" />
<hkern u1="W" u2="&#xab;" k="51" />
<hkern u1="W" u2="u" k="51" />
<hkern u1="W" u2="r" k="41" />
<hkern u1="W" u2="o" k="72" />
<hkern u1="W" u2="g" k="61" />
<hkern u1="W" u2="e" k="72" />
<hkern u1="W" u2="a" k="61" />
<hkern u1="W" u2="T" k="-61" />
<hkern u1="W" u2="O" k="31" />
<hkern u1="W" u2="G" k="31" />
<hkern u1="W" u2="C" k="31" />
<hkern u1="W" u2="A" k="102" />
<hkern u1="W" u2="&#x3b;" k="72" />
<hkern u1="W" u2="&#x3a;" k="72" />
<hkern u1="W" u2="&#x2e;" k="102" />
<hkern u1="W" u2="&#x2d;" k="51" />
<hkern u1="W" u2="&#x2c;" k="102" />
<hkern u1="X" u2="&#xff;" k="82" />
<hkern u1="X" u2="&#xfc;" k="61" />
<hkern u1="X" u2="&#xfb;" k="61" />
<hkern u1="X" u2="&#xfa;" k="61" />
<hkern u1="X" u2="&#xf9;" k="61" />
<hkern u1="X" u2="&#xf8;" k="82" />
<hkern u1="X" u2="&#xf6;" k="82" />
<hkern u1="X" u2="&#xf5;" k="82" />
<hkern u1="X" u2="&#xf4;" k="82" />
<hkern u1="X" u2="&#xf3;" k="82" />
<hkern u1="X" u2="&#xf2;" k="82" />
<hkern u1="X" u2="&#xeb;" k="82" />
<hkern u1="X" u2="&#xea;" k="82" />
<hkern u1="X" u2="&#xe9;" k="82" />
<hkern u1="X" u2="&#xe8;" k="82" />
<hkern u1="X" u2="&#xe5;" k="82" />
<hkern u1="X" u2="&#xe4;" k="82" />
<hkern u1="X" u2="&#xe3;" k="82" />
<hkern u1="X" u2="&#xe2;" k="82" />
<hkern u1="X" u2="&#xe1;" k="82" />
<hkern u1="X" u2="&#xe0;" k="82" />
<hkern u1="X" u2="&#xd8;" k="61" />
<hkern u1="X" u2="&#xd6;" k="61" />
<hkern u1="X" u2="&#xd5;" k="61" />
<hkern u1="X" u2="&#xd4;" k="61" />
<hkern u1="X" u2="&#xd3;" k="61" />
<hkern u1="X" u2="&#xd2;" k="61" />
<hkern u1="X" u2="&#xc7;" k="61" />
<hkern u1="X" u2="y" k="82" />
<hkern u1="X" u2="u" k="61" />
<hkern u1="X" u2="o" k="82" />
<hkern u1="X" u2="e" k="82" />
<hkern u1="X" u2="a" k="82" />
<hkern u1="X" u2="Q" k="61" />
<hkern u1="X" u2="O" k="61" />
<hkern u1="X" u2="C" k="61" />
<hkern u1="X" u2="&#x2d;" k="113" />
<hkern u1="Y" u2="&#x2039;" k="123" />
<hkern u1="Y" u2="&#x153;" k="72" />
<hkern u1="Y" u2="&#x152;" k="31" />
<hkern u1="Y" u2="&#xfc;" k="51" />
<hkern u1="Y" u2="&#xfb;" k="51" />
<hkern u1="Y" u2="&#xfa;" k="72" />
<hkern u1="Y" u2="&#xf9;" k="51" />
<hkern u1="Y" u2="&#xf8;" k="133" />
<hkern u1="Y" u2="&#xf6;" k="72" />
<hkern u1="Y" u2="&#xf5;" k="72" />
<hkern u1="Y" u2="&#xf4;" k="72" />
<hkern u1="Y" u2="&#xf3;" k="102" />
<hkern u1="Y" u2="&#xf2;" k="72" />
<hkern u1="Y" u2="&#xeb;" k="72" />
<hkern u1="Y" u2="&#xea;" k="72" />
<hkern u1="Y" u2="&#xe9;" k="102" />
<hkern u1="Y" u2="&#xe8;" k="72" />
<hkern u1="Y" u2="&#xe6;" k="61" />
<hkern u1="Y" u2="&#xe5;" k="61" />
<hkern u1="Y" u2="&#xe4;" k="61" />
<hkern u1="Y" u2="&#xe3;" k="61" />
<hkern u1="Y" u2="&#xe2;" k="61" />
<hkern u1="Y" u2="&#xe1;" k="102" />
<hkern u1="Y" u2="&#xe0;" k="61" />
<hkern u1="Y" u2="&#xd8;" k="92" />
<hkern u1="Y" u2="&#xd6;" k="92" />
<hkern u1="Y" u2="&#xc7;" k="92" />
<hkern u1="Y" u2="&#xc6;" k="102" />
<hkern u1="Y" u2="&#xc5;" k="164" />
<hkern u1="Y" u2="&#xc4;" k="164" />
<hkern u1="Y" u2="&#xab;" k="123" />
<hkern u1="Y" u2="v" k="41" />
<hkern u1="Y" u2="u" k="92" />
<hkern u1="Y" u2="p" k="82" />
<hkern u1="Y" u2="o" k="133" />
<hkern u1="Y" u2="g" k="133" />
<hkern u1="Y" u2="e" k="133" />
<hkern u1="Y" u2="a" k="133" />
<hkern u1="Y" u2="T" k="-72" />
<hkern u1="Y" u2="S" k="41" />
<hkern u1="Y" u2="O" k="92" />
<hkern u1="Y" u2="G" k="92" />
<hkern u1="Y" u2="C" k="92" />
<hkern u1="Y" u2="A" k="164" />
<hkern u1="Y" u2="&#x3b;" k="123" />
<hkern u1="Y" u2="&#x3a;" k="123" />
<hkern u1="Y" u2="&#x2e;" k="154" />
<hkern u1="Y" u2="&#x2d;" k="133" />
<hkern u1="Y" u2="&#x2c;" k="154" />
<hkern u1="Z" u2="&#xff;" k="31" />
<hkern u1="Z" u2="y" k="31" />
<hkern u1="Z" u2="v" k="20" />
<hkern u1="a" u2="&#x2019;" k="-20" />
<hkern u1="b" u2="&#xff;" k="41" />
<hkern u1="b" u2="y" k="41" />
<hkern u1="b" u2="w" k="31" />
<hkern u1="b" u2="v" k="41" />
<hkern u1="e" u2="&#x2019;" k="41" />
<hkern u1="e" u2="&#xff;" k="61" />
<hkern u1="e" u2="y" k="61" />
<hkern u1="e" u2="x" k="51" />
<hkern u1="e" u2="w" k="51" />
<hkern u1="e" u2="v" k="51" />
<hkern u1="e" u2="V" k="123" />
<hkern u1="f" u2="&#x2019;" k="-31" />
<hkern u1="f" u2="&#x153;" k="20" />
<hkern u1="f" u2="&#xf8;" k="20" />
<hkern u1="f" u2="&#xe6;" k="20" />
<hkern u1="f" u2="t" k="-31" />
<hkern u1="f" u2="o" k="20" />
<hkern u1="f" u2="f" k="-31" />
<hkern u1="f" u2="e" k="20" />
<hkern u1="g" u2="&#xe6;" k="-20" />
<hkern u1="g" u2="&#xe5;" k="-20" />
<hkern u1="g" u2="&#xe4;" k="-20" />
<hkern u1="g" u2="&#xe3;" k="-20" />
<hkern u1="g" u2="&#xe2;" k="-20" />
<hkern u1="g" u2="&#xe1;" k="-20" />
<hkern u1="g" u2="&#xe0;" k="-20" />
<hkern u1="g" u2="r" k="-31" />
<hkern u1="g" u2="l" k="-31" />
<hkern u1="g" u2="a" k="-20" />
<hkern u1="h" u2="&#x2019;" k="20" />
<hkern u1="h" u2="&#xff;" k="41" />
<hkern u1="h" u2="y" k="41" />
<hkern u1="k" u2="&#xfc;" k="72" />
<hkern u1="k" u2="&#xfb;" k="72" />
<hkern u1="k" u2="&#xf8;" k="102" />
<hkern u1="k" u2="&#xf6;" k="102" />
<hkern u1="k" u2="&#xeb;" k="102" />
<hkern u1="k" u2="&#xea;" k="102" />
<hkern u1="k" u2="&#xe9;" k="102" />
<hkern u1="k" u2="&#xe8;" k="102" />
<hkern u1="k" u2="&#xe6;" k="92" />
<hkern u1="k" u2="&#xe5;" k="92" />
<hkern u1="k" u2="&#xe4;" k="92" />
<hkern u1="k" u2="u" k="72" />
<hkern u1="k" u2="s" k="61" />
<hkern u1="k" u2="o" k="102" />
<hkern u1="k" u2="g" k="92" />
<hkern u1="k" u2="e" k="102" />
<hkern u1="k" u2="a" k="92" />
<hkern u1="k" u2="W" k="31" />
<hkern u1="k" u2="V" k="61" />
<hkern u1="k" u2="&#x2d;" k="143" />
<hkern u1="m" u2="&#xff;" k="41" />
<hkern u1="m" u2="y" k="41" />
<hkern u1="m" u2="w" k="41" />
<hkern u1="m" u2="v" k="41" />
<hkern u1="m" u2="p" k="-20" />
<hkern u1="n" u2="&#x2019;" k="20" />
<hkern u1="n" u2="&#xff;" k="41" />
<hkern u1="n" u2="y" k="41" />
<hkern u1="n" u2="w" k="31" />
<hkern u1="n" u2="v" k="41" />
<hkern u1="n" u2="p" k="-20" />
<hkern u1="n" u2="T" k="61" />
<hkern u1="o" u2="&#x2019;" k="31" />
<hkern u1="o" u2="&#xff;" k="51" />
<hkern u1="o" u2="y" k="51" />
<hkern u1="o" u2="x" k="41" />
<hkern u1="o" u2="w" k="41" />
<hkern u1="o" u2="v" k="41" />
<hkern u1="o" u2="T" k="72" />
<hkern u1="p" u2="&#xff;" k="51" />
<hkern u1="p" u2="y" k="51" />
<hkern u1="q" u2="&#xfc;" k="-31" />
<hkern u1="q" u2="&#xfb;" k="-31" />
<hkern u1="q" u2="&#xfa;" k="-31" />
<hkern u1="q" u2="&#xf9;" k="-31" />
<hkern u1="q" u2="u" k="-31" />
<hkern u1="r" u2="&#x2019;" k="-41" />
<hkern u1="r" u2="&#x153;" k="41" />
<hkern u1="r" u2="&#xff;" k="-31" />
<hkern u1="r" u2="&#xf8;" k="41" />
<hkern u1="r" u2="&#xf6;" k="41" />
<hkern u1="r" u2="&#xf5;" k="41" />
<hkern u1="r" u2="&#xf4;" k="41" />
<hkern u1="r" u2="&#xf3;" k="41" />
<hkern u1="r" u2="&#xf2;" k="41" />
<hkern u1="r" u2="&#xeb;" k="41" />
<hkern u1="r" u2="&#xea;" k="41" />
<hkern u1="r" u2="&#xe9;" k="41" />
<hkern u1="r" u2="&#xe8;" k="41" />
<hkern u1="r" u2="&#xe7;" k="41" />
<hkern u1="r" u2="&#xe6;" k="41" />
<hkern u1="r" u2="&#xe5;" k="41" />
<hkern u1="r" u2="&#xe4;" k="41" />
<hkern u1="r" u2="&#xe3;" k="41" />
<hkern u1="r" u2="&#xe2;" k="41" />
<hkern u1="r" u2="&#xe1;" k="41" />
<hkern u1="r" u2="&#xe0;" k="41" />
<hkern u1="r" u2="y" k="-31" />
<hkern u1="r" u2="w" k="-20" />
<hkern u1="r" u2="v" k="-31" />
<hkern u1="r" u2="t" k="-31" />
<hkern u1="r" u2="q" k="31" />
<hkern u1="r" u2="o" k="41" />
<hkern u1="r" u2="g" k="31" />
<hkern u1="r" u2="f" k="-31" />
<hkern u1="r" u2="e" k="41" />
<hkern u1="r" u2="d" k="31" />
<hkern u1="r" u2="c" k="41" />
<hkern u1="r" u2="a" k="41" />
<hkern u1="r" u2="&#x3b;" k="20" />
<hkern u1="r" u2="&#x3a;" k="20" />
<hkern u1="r" u2="&#x2e;" k="61" />
<hkern u1="r" u2="&#x2d;" k="61" />
<hkern u1="r" u2="&#x2c;" k="61" />
<hkern u1="s" u2="t" k="-20" />
<hkern u1="t" u2="&#x2019;" k="-41" />
<hkern u1="t" u2="&#xf8;" k="20" />
<hkern u1="t" u2="&#xf6;" k="20" />
<hkern u1="t" u2="&#xf5;" k="20" />
<hkern u1="t" u2="&#xf4;" k="20" />
<hkern u1="t" u2="&#xf3;" k="20" />
<hkern u1="t" u2="&#xf2;" k="20" />
<hkern u1="t" u2="&#xeb;" k="20" />
<hkern u1="t" u2="&#xea;" k="20" />
<hkern u1="t" u2="&#xe9;" k="20" />
<hkern u1="t" u2="&#xe8;" k="20" />
<hkern u1="t" u2="&#xe6;" k="20" />
<hkern u1="t" u2="&#xe5;" k="20" />
<hkern u1="t" u2="&#xe4;" k="20" />
<hkern u1="t" u2="&#xe3;" k="20" />
<hkern u1="t" u2="&#xe2;" k="20" />
<hkern u1="t" u2="&#xe1;" k="20" />
<hkern u1="t" u2="&#xe0;" k="20" />
<hkern u1="t" u2="o" k="20" />
<hkern u1="t" u2="h" k="-20" />
<hkern u1="t" u2="e" k="20" />
<hkern u1="t" u2="a" k="20" />
<hkern u1="t" u2="S" k="-20" />
<hkern u1="u" u2="&#x2019;" k="-20" />
<hkern u1="v" u2="&#x153;" k="61" />
<hkern u1="v" u2="&#xf8;" k="61" />
<hkern u1="v" u2="&#xf6;" k="61" />
<hkern u1="v" u2="&#xf5;" k="61" />
<hkern u1="v" u2="&#xf4;" k="61" />
<hkern u1="v" u2="&#xf3;" k="61" />
<hkern u1="v" u2="&#xf2;" k="61" />
<hkern u1="v" u2="&#xeb;" k="61" />
<hkern u1="v" u2="&#xea;" k="61" />
<hkern u1="v" u2="&#xe9;" k="61" />
<hkern u1="v" u2="&#xe8;" k="61" />
<hkern u1="v" u2="&#xe7;" k="61" />
<hkern u1="v" u2="&#xe6;" k="51" />
<hkern u1="v" u2="&#xe5;" k="51" />
<hkern u1="v" u2="&#xe4;" k="51" />
<hkern u1="v" u2="&#xe3;" k="51" />
<hkern u1="v" u2="&#xe2;" k="51" />
<hkern u1="v" u2="&#xe1;" k="51" />
<hkern u1="v" u2="&#xe0;" k="51" />
<hkern u1="v" u2="s" k="41" />
<hkern u1="v" u2="o" k="61" />
<hkern u1="v" u2="g" k="51" />
<hkern u1="v" u2="e" k="61" />
<hkern u1="v" u2="c" k="61" />
<hkern u1="v" u2="a" k="51" />
<hkern u1="v" u2="&#x3b;" k="41" />
<hkern u1="v" u2="&#x3a;" k="41" />
<hkern u1="v" u2="&#x2e;" k="123" />
<hkern u1="v" u2="&#x2d;" k="41" />
<hkern u1="v" u2="&#x2c;" k="123" />
<hkern u1="w" u2="&#x153;" k="61" />
<hkern u1="w" u2="&#xf8;" k="61" />
<hkern u1="w" u2="&#xf6;" k="61" />
<hkern u1="w" u2="&#xeb;" k="61" />
<hkern u1="w" u2="&#xe7;" k="61" />
<hkern u1="w" u2="&#xe6;" k="51" />
<hkern u1="w" u2="&#xe5;" k="51" />
<hkern u1="w" u2="&#xe4;" k="51" />
<hkern u1="w" u2="s" k="41" />
<hkern u1="w" u2="o" k="61" />
<hkern u1="w" u2="l" k="20" />
<hkern u1="w" u2="g" k="51" />
<hkern u1="w" u2="e" k="61" />
<hkern u1="w" u2="c" k="61" />
<hkern u1="w" u2="a" k="51" />
<hkern u1="w" u2="&#x3b;" k="51" />
<hkern u1="w" u2="&#x3a;" k="51" />
<hkern u1="w" u2="&#x2e;" k="113" />
<hkern u1="w" u2="&#x2d;" k="41" />
<hkern u1="w" u2="&#x2c;" k="113" />
<hkern u1="x" u2="&#xf8;" k="61" />
<hkern u1="x" u2="&#xf6;" k="61" />
<hkern u1="x" u2="&#xf5;" k="61" />
<hkern u1="x" u2="&#xf4;" k="61" />
<hkern u1="x" u2="&#xf3;" k="61" />
<hkern u1="x" u2="&#xf2;" k="61" />
<hkern u1="x" u2="&#xeb;" k="61" />
<hkern u1="x" u2="&#xea;" k="61" />
<hkern u1="x" u2="&#xe9;" k="61" />
<hkern u1="x" u2="&#xe8;" k="61" />
<hkern u1="x" u2="&#xe7;" k="61" />
<hkern u1="x" u2="&#xe5;" k="51" />
<hkern u1="x" u2="&#xe4;" k="51" />
<hkern u1="x" u2="&#xe3;" k="51" />
<hkern u1="x" u2="&#xe2;" k="51" />
<hkern u1="x" u2="&#xe1;" k="51" />
<hkern u1="x" u2="&#xe0;" k="51" />
<hkern u1="x" u2="q" k="61" />
<hkern u1="x" u2="o" k="61" />
<hkern u1="x" u2="e" k="61" />
<hkern u1="x" u2="c" k="61" />
<hkern u1="x" u2="a" k="51" />
<hkern u1="y" u2="&#x153;" k="61" />
<hkern u1="y" u2="&#xf8;" k="82" />
<hkern u1="y" u2="&#xf6;" k="82" />
<hkern u1="y" u2="&#xeb;" k="82" />
<hkern u1="y" u2="&#xea;" k="82" />
<hkern u1="y" u2="&#xe7;" k="72" />
<hkern u1="y" u2="&#xe6;" k="51" />
<hkern u1="y" u2="&#xe5;" k="72" />
<hkern u1="y" u2="&#xe4;" k="72" />
<hkern u1="y" u2="s" k="51" />
<hkern u1="y" u2="o" k="82" />
<hkern u1="y" u2="g" k="72" />
<hkern u1="y" u2="e" k="82" />
<hkern u1="y" u2="c" k="72" />
<hkern u1="y" u2="a" k="72" />
<hkern u1="y" u2="&#x3b;" k="51" />
<hkern u1="y" u2="&#x3a;" k="51" />
<hkern u1="y" u2="&#x2e;" k="143" />
<hkern u1="y" u2="&#x2d;" k="61" />
<hkern u1="y" u2="&#x2c;" k="143" />
<hkern u1="&#xbb;" u2="&#x178;" k="133" />
<hkern u1="&#xbb;" u2="&#xc6;" k="113" />
<hkern u1="&#xbb;" u2="&#xc5;" k="31" />
<hkern u1="&#xbb;" u2="&#xc4;" k="31" />
<hkern u1="&#xbb;" u2="Y" k="133" />
<hkern u1="&#xbb;" u2="W" k="51" />
<hkern u1="&#xbb;" u2="V" k="102" />
<hkern u1="&#xbb;" u2="T" k="51" />
<hkern u1="&#xbb;" u2="A" k="31" />
<hkern u1="&#xc0;" u2="y" k="92" />
<hkern u1="&#xc0;" u2="u" k="31" />
<hkern u1="&#xc0;" u2="o" k="51" />
<hkern u1="&#xc0;" u2="Y" k="174" />
<hkern u1="&#xc0;" u2="U" k="61" />
<hkern u1="&#xc0;" u2="O" k="72" />
<hkern u1="&#xc1;" u2="y" k="92" />
<hkern u1="&#xc1;" u2="u" k="31" />
<hkern u1="&#xc1;" u2="t" k="20" />
<hkern u1="&#xc1;" u2="o" k="51" />
<hkern u1="&#xc1;" u2="c" k="51" />
<hkern u1="&#xc1;" u2="Y" k="174" />
<hkern u1="&#xc1;" u2="U" k="61" />
<hkern u1="&#xc1;" u2="T" k="82" />
<hkern u1="&#xc1;" u2="O" k="72" />
<hkern u1="&#xc1;" u2="C" k="72" />
<hkern u1="&#xc2;" u2="y" k="92" />
<hkern u1="&#xc2;" u2="u" k="31" />
<hkern u1="&#xc2;" u2="Y" k="174" />
<hkern u1="&#xc2;" u2="U" k="61" />
<hkern u1="&#xc3;" u2="y" k="92" />
<hkern u1="&#xc3;" u2="o" k="51" />
<hkern u1="&#xc3;" u2="Y" k="174" />
<hkern u1="&#xc3;" u2="O" k="72" />
<hkern u1="&#xc4;" u2="&#x2039;" k="31" />
<hkern u1="&#xc4;" u2="&#x201d;" k="154" />
<hkern u1="&#xc4;" u2="&#x2019;" k="154" />
<hkern u1="&#xc4;" u2="&#x178;" k="174" />
<hkern u1="&#xc4;" u2="&#xff;" k="92" />
<hkern u1="&#xc4;" u2="&#xfc;" k="31" />
<hkern u1="&#xc4;" u2="&#xfb;" k="31" />
<hkern u1="&#xc4;" u2="&#xf8;" k="51" />
<hkern u1="&#xc4;" u2="&#xf6;" k="51" />
<hkern u1="&#xc4;" u2="&#xeb;" k="51" />
<hkern u1="&#xc4;" u2="&#xe7;" k="51" />
<hkern u1="&#xc4;" u2="&#xe5;" k="41" />
<hkern u1="&#xc4;" u2="&#xe4;" k="41" />
<hkern u1="&#xc4;" u2="&#xdc;" k="61" />
<hkern u1="&#xc4;" u2="&#xdb;" k="61" />
<hkern u1="&#xc4;" u2="&#xd8;" k="72" />
<hkern u1="&#xc4;" u2="&#xd6;" k="72" />
<hkern u1="&#xc4;" u2="&#xc7;" k="72" />
<hkern u1="&#xc4;" u2="&#xab;" k="31" />
<hkern u1="&#xc4;" u2="y" k="92" />
<hkern u1="&#xc4;" u2="w" k="82" />
<hkern u1="&#xc4;" u2="v" k="82" />
<hkern u1="&#xc4;" u2="u" k="31" />
<hkern u1="&#xc4;" u2="t" k="20" />
<hkern u1="&#xc4;" u2="q" k="41" />
<hkern u1="&#xc4;" u2="o" k="51" />
<hkern u1="&#xc4;" u2="g" k="41" />
<hkern u1="&#xc4;" u2="e" k="51" />
<hkern u1="&#xc4;" u2="d" k="41" />
<hkern u1="&#xc4;" u2="c" k="51" />
<hkern u1="&#xc4;" u2="a" k="41" />
<hkern u1="&#xc4;" u2="Y" k="174" />
<hkern u1="&#xc4;" u2="W" k="113" />
<hkern u1="&#xc4;" u2="V" k="154" />
<hkern u1="&#xc4;" u2="U" k="61" />
<hkern u1="&#xc4;" u2="T" k="82" />
<hkern u1="&#xc4;" u2="Q" k="72" />
<hkern u1="&#xc4;" u2="O" k="72" />
<hkern u1="&#xc4;" u2="G" k="72" />
<hkern u1="&#xc4;" u2="C" k="72" />
<hkern u1="&#xc4;" u2="&#x2e;" k="-41" />
<hkern u1="&#xc4;" u2="&#x2d;" k="31" />
<hkern u1="&#xc4;" u2="&#x2c;" k="-41" />
<hkern u1="&#xc5;" u2="&#x2039;" k="31" />
<hkern u1="&#xc5;" u2="&#x201d;" k="154" />
<hkern u1="&#xc5;" u2="&#x2019;" k="154" />
<hkern u1="&#xc5;" u2="&#x178;" k="174" />
<hkern u1="&#xc5;" u2="&#xff;" k="92" />
<hkern u1="&#xc5;" u2="&#xfc;" k="31" />
<hkern u1="&#xc5;" u2="&#xfb;" k="31" />
<hkern u1="&#xc5;" u2="&#xf8;" k="51" />
<hkern u1="&#xc5;" u2="&#xf6;" k="51" />
<hkern u1="&#xc5;" u2="&#xeb;" k="51" />
<hkern u1="&#xc5;" u2="&#xe7;" k="51" />
<hkern u1="&#xc5;" u2="&#xe5;" k="41" />
<hkern u1="&#xc5;" u2="&#xe4;" k="41" />
<hkern u1="&#xc5;" u2="&#xdc;" k="61" />
<hkern u1="&#xc5;" u2="&#xdb;" k="61" />
<hkern u1="&#xc5;" u2="&#xd8;" k="72" />
<hkern u1="&#xc5;" u2="&#xd6;" k="72" />
<hkern u1="&#xc5;" u2="&#xc7;" k="72" />
<hkern u1="&#xc5;" u2="&#xab;" k="31" />
<hkern u1="&#xc5;" u2="y" k="92" />
<hkern u1="&#xc5;" u2="w" k="82" />
<hkern u1="&#xc5;" u2="v" k="82" />
<hkern u1="&#xc5;" u2="u" k="31" />
<hkern u1="&#xc5;" u2="t" k="20" />
<hkern u1="&#xc5;" u2="q" k="41" />
<hkern u1="&#xc5;" u2="o" k="51" />
<hkern u1="&#xc5;" u2="g" k="41" />
<hkern u1="&#xc5;" u2="e" k="51" />
<hkern u1="&#xc5;" u2="d" k="41" />
<hkern u1="&#xc5;" u2="c" k="51" />
<hkern u1="&#xc5;" u2="a" k="41" />
<hkern u1="&#xc5;" u2="Y" k="174" />
<hkern u1="&#xc5;" u2="W" k="113" />
<hkern u1="&#xc5;" u2="V" k="154" />
<hkern u1="&#xc5;" u2="U" k="61" />
<hkern u1="&#xc5;" u2="T" k="82" />
<hkern u1="&#xc5;" u2="Q" k="72" />
<hkern u1="&#xc5;" u2="O" k="72" />
<hkern u1="&#xc5;" u2="G" k="72" />
<hkern u1="&#xc5;" u2="C" k="72" />
<hkern u1="&#xc5;" u2="&#x2e;" k="-41" />
<hkern u1="&#xc5;" u2="&#x2d;" k="31" />
<hkern u1="&#xc5;" u2="&#x2c;" k="-41" />
<hkern u1="&#xc7;" u2="&#xc6;" k="82" />
<hkern u1="&#xc7;" u2="&#xc5;" k="31" />
<hkern u1="&#xc7;" u2="&#xc4;" k="31" />
<hkern u1="&#xc7;" u2="A" k="31" />
<hkern u1="&#xd1;" u2="&#xfc;" k="-20" />
<hkern u1="&#xd1;" u2="&#xfb;" k="-20" />
<hkern u1="&#xd1;" u2="&#xc6;" k="20" />
<hkern u1="&#xd1;" u2="u" k="-20" />
<hkern u1="&#xd1;" u2="&#x2e;" k="-20" />
<hkern u1="&#xd1;" u2="&#x2c;" k="-20" />
<hkern u1="&#xd2;" u2="A" k="82" />
<hkern u1="&#xd3;" u2="T" k="61" />
<hkern u1="&#xd3;" u2="A" k="82" />
<hkern u1="&#xd6;" u2="&#x178;" k="113" />
<hkern u1="&#xd6;" u2="&#xc6;" k="143" />
<hkern u1="&#xd6;" u2="&#xc5;" k="82" />
<hkern u1="&#xd6;" u2="&#xc4;" k="82" />
<hkern u1="&#xd6;" u2="Y" k="113" />
<hkern u1="&#xd6;" u2="X" k="72" />
<hkern u1="&#xd6;" u2="W" k="51" />
<hkern u1="&#xd6;" u2="V" k="82" />
<hkern u1="&#xd6;" u2="T" k="61" />
<hkern u1="&#xd6;" u2="A" k="82" />
<hkern u1="&#xd8;" u2="&#x178;" k="113" />
<hkern u1="&#xd8;" u2="&#xc6;" k="143" />
<hkern u1="&#xd8;" u2="&#xc5;" k="82" />
<hkern u1="&#xd8;" u2="&#xc4;" k="82" />
<hkern u1="&#xd8;" u2="Y" k="113" />
<hkern u1="&#xd8;" u2="X" k="72" />
<hkern u1="&#xd8;" u2="W" k="51" />
<hkern u1="&#xd8;" u2="V" k="82" />
<hkern u1="&#xd8;" u2="T" k="61" />
<hkern u1="&#xd8;" u2="A" k="82" />
<hkern u1="&#xd9;" u2="n" k="-20" />
<hkern u1="&#xd9;" u2="m" k="-20" />
<hkern u1="&#xd9;" u2="A" k="72" />
<hkern u1="&#xda;" u2="p" k="-20" />
<hkern u1="&#xda;" u2="n" k="-20" />
<hkern u1="&#xda;" u2="m" k="-20" />
<hkern u1="&#xda;" u2="A" k="72" />
<hkern u1="&#xdb;" u2="&#xc6;" k="113" />
<hkern u1="&#xdb;" u2="&#xc5;" k="72" />
<hkern u1="&#xdb;" u2="&#xc4;" k="72" />
<hkern u1="&#xdb;" u2="r" k="-20" />
<hkern u1="&#xdb;" u2="p" k="-20" />
<hkern u1="&#xdb;" u2="n" k="-20" />
<hkern u1="&#xdb;" u2="m" k="-20" />
<hkern u1="&#xdb;" u2="A" k="72" />
<hkern u1="&#xdb;" u2="&#x2e;" k="20" />
<hkern u1="&#xdb;" u2="&#x2c;" k="20" />
<hkern u1="&#xdc;" u2="&#xc6;" k="113" />
<hkern u1="&#xdc;" u2="&#xc5;" k="72" />
<hkern u1="&#xdc;" u2="&#xc4;" k="72" />
<hkern u1="&#xdc;" u2="r" k="-20" />
<hkern u1="&#xdc;" u2="p" k="-20" />
<hkern u1="&#xdc;" u2="n" k="-20" />
<hkern u1="&#xdc;" u2="m" k="-20" />
<hkern u1="&#xdc;" u2="A" k="72" />
<hkern u1="&#xdc;" u2="&#x2e;" k="20" />
<hkern u1="&#xdc;" u2="&#x2c;" k="20" />
<hkern u1="&#xdd;" u2="&#x153;" k="72" />
<hkern u1="&#xdd;" u2="&#x152;" k="31" />
<hkern u1="&#xdd;" u2="&#xfc;" k="51" />
<hkern u1="&#xdd;" u2="&#xfb;" k="51" />
<hkern u1="&#xdd;" u2="&#xfa;" k="72" />
<hkern u1="&#xdd;" u2="&#xf9;" k="51" />
<hkern u1="&#xdd;" u2="&#xf6;" k="72" />
<hkern u1="&#xdd;" u2="&#xf5;" k="72" />
<hkern u1="&#xdd;" u2="&#xf4;" k="72" />
<hkern u1="&#xdd;" u2="&#xf3;" k="102" />
<hkern u1="&#xdd;" u2="&#xf2;" k="72" />
<hkern u1="&#xdd;" u2="&#xeb;" k="72" />
<hkern u1="&#xdd;" u2="&#xea;" k="72" />
<hkern u1="&#xdd;" u2="&#xe9;" k="102" />
<hkern u1="&#xdd;" u2="&#xe8;" k="72" />
<hkern u1="&#xdd;" u2="&#xe6;" k="61" />
<hkern u1="&#xdd;" u2="&#xe5;" k="61" />
<hkern u1="&#xdd;" u2="&#xe4;" k="61" />
<hkern u1="&#xdd;" u2="&#xe3;" k="61" />
<hkern u1="&#xdd;" u2="&#xe2;" k="61" />
<hkern u1="&#xdd;" u2="&#xe1;" k="102" />
<hkern u1="&#xdd;" u2="&#xe0;" k="61" />
<hkern u1="&#xdd;" u2="&#xc6;" k="102" />
<hkern u1="&#xdd;" u2="T" k="-72" />
<hkern u1="&#xdd;" u2="C" k="92" />
<hkern u1="&#xe4;" u2="&#x2019;" k="-20" />
<hkern u1="&#xe5;" u2="&#x2019;" k="-20" />
<hkern u1="&#xe6;" u2="&#xff;" k="61" />
<hkern u1="&#xe6;" u2="y" k="61" />
<hkern u1="&#xe6;" u2="w" k="51" />
<hkern u1="&#xe6;" u2="v" k="51" />
<hkern u1="&#xeb;" u2="&#x2019;" k="41" />
<hkern u1="&#xeb;" u2="&#xff;" k="61" />
<hkern u1="&#xeb;" u2="y" k="61" />
<hkern u1="&#xeb;" u2="x" k="51" />
<hkern u1="&#xeb;" u2="w" k="51" />
<hkern u1="&#xeb;" u2="v" k="51" />
<hkern u1="&#xf1;" u2="&#x2019;" k="20" />
<hkern u1="&#xf1;" u2="&#xff;" k="41" />
<hkern u1="&#xf1;" u2="y" k="41" />
<hkern u1="&#xf1;" u2="w" k="31" />
<hkern u1="&#xf1;" u2="v" k="41" />
<hkern u1="&#xf1;" u2="p" k="-20" />
<hkern u1="&#xf1;" u2="T" k="61" />
<hkern u1="&#xf3;" u2="T" k="72" />
<hkern u1="&#xf6;" u2="&#x2019;" k="31" />
<hkern u1="&#xf6;" u2="&#xff;" k="51" />
<hkern u1="&#xf6;" u2="y" k="51" />
<hkern u1="&#xf6;" u2="x" k="41" />
<hkern u1="&#xf6;" u2="w" k="41" />
<hkern u1="&#xf6;" u2="v" k="41" />
<hkern u1="&#xf6;" u2="T" k="72" />
<hkern u1="&#xf8;" u2="&#x2019;" k="31" />
<hkern u1="&#xf8;" u2="&#xff;" k="51" />
<hkern u1="&#xf8;" u2="y" k="51" />
<hkern u1="&#xf8;" u2="x" k="41" />
<hkern u1="&#xf8;" u2="w" k="41" />
<hkern u1="&#xf8;" u2="v" k="41" />
<hkern u1="&#xf8;" u2="T" k="72" />
<hkern u1="&#xfb;" u2="&#x2019;" k="-20" />
<hkern u1="&#xfc;" u2="&#x2019;" k="-20" />
<hkern u1="&#xfd;" u2="&#x153;" k="61" />
<hkern u1="&#xfd;" u2="&#xe6;" k="51" />
<hkern u1="&#xfd;" u2="c" k="72" />
<hkern u1="&#xff;" u2="&#x153;" k="61" />
<hkern u1="&#xff;" u2="&#xf8;" k="82" />
<hkern u1="&#xff;" u2="&#xf6;" k="82" />
<hkern u1="&#xff;" u2="&#xeb;" k="82" />
<hkern u1="&#xff;" u2="&#xe7;" k="72" />
<hkern u1="&#xff;" u2="&#xe6;" k="51" />
<hkern u1="&#xff;" u2="&#xe5;" k="72" />
<hkern u1="&#xff;" u2="&#xe4;" k="72" />
<hkern u1="&#xff;" u2="s" k="51" />
<hkern u1="&#xff;" u2="o" k="82" />
<hkern u1="&#xff;" u2="g" k="72" />
<hkern u1="&#xff;" u2="e" k="82" />
<hkern u1="&#xff;" u2="c" k="72" />
<hkern u1="&#xff;" u2="a" k="72" />
<hkern u1="&#xff;" u2="&#x3b;" k="51" />
<hkern u1="&#xff;" u2="&#x3a;" k="51" />
<hkern u1="&#xff;" u2="&#x2e;" k="143" />
<hkern u1="&#xff;" u2="&#x2d;" k="61" />
<hkern u1="&#xff;" u2="&#x2c;" k="143" />
<hkern u1="&#x178;" u2="&#x2039;" k="123" />
<hkern u1="&#x178;" u2="&#x153;" k="72" />
<hkern u1="&#x178;" u2="&#x152;" k="31" />
<hkern u1="&#x178;" u2="&#xfc;" k="51" />
<hkern u1="&#x178;" u2="&#xfb;" k="51" />
<hkern u1="&#x178;" u2="&#xfa;" k="72" />
<hkern u1="&#x178;" u2="&#xf9;" k="51" />
<hkern u1="&#x178;" u2="&#xf8;" k="133" />
<hkern u1="&#x178;" u2="&#xf6;" k="72" />
<hkern u1="&#x178;" u2="&#xf5;" k="72" />
<hkern u1="&#x178;" u2="&#xf4;" k="72" />
<hkern u1="&#x178;" u2="&#xf3;" k="102" />
<hkern u1="&#x178;" u2="&#xf2;" k="72" />
<hkern u1="&#x178;" u2="&#xeb;" k="72" />
<hkern u1="&#x178;" u2="&#xea;" k="72" />
<hkern u1="&#x178;" u2="&#xe9;" k="102" />
<hkern u1="&#x178;" u2="&#xe8;" k="72" />
<hkern u1="&#x178;" u2="&#xe6;" k="61" />
<hkern u1="&#x178;" u2="&#xe5;" k="61" />
<hkern u1="&#x178;" u2="&#xe4;" k="61" />
<hkern u1="&#x178;" u2="&#xe3;" k="61" />
<hkern u1="&#x178;" u2="&#xe2;" k="61" />
<hkern u1="&#x178;" u2="&#xe1;" k="102" />
<hkern u1="&#x178;" u2="&#xe0;" k="61" />
<hkern u1="&#x178;" u2="&#xd8;" k="92" />
<hkern u1="&#x178;" u2="&#xd6;" k="92" />
<hkern u1="&#x178;" u2="&#xc7;" k="92" />
<hkern u1="&#x178;" u2="&#xc6;" k="102" />
<hkern u1="&#x178;" u2="&#xc5;" k="164" />
<hkern u1="&#x178;" u2="&#xc4;" k="164" />
<hkern u1="&#x178;" u2="&#xab;" k="123" />
<hkern u1="&#x178;" u2="v" k="41" />
<hkern u1="&#x178;" u2="u" k="92" />
<hkern u1="&#x178;" u2="p" k="82" />
<hkern u1="&#x178;" u2="o" k="133" />
<hkern u1="&#x178;" u2="g" k="133" />
<hkern u1="&#x178;" u2="e" k="133" />
<hkern u1="&#x178;" u2="a" k="133" />
<hkern u1="&#x178;" u2="T" k="-72" />
<hkern u1="&#x178;" u2="S" k="41" />
<hkern u1="&#x178;" u2="O" k="92" />
<hkern u1="&#x178;" u2="G" k="92" />
<hkern u1="&#x178;" u2="C" k="92" />
<hkern u1="&#x178;" u2="A" k="164" />
<hkern u1="&#x178;" u2="&#x3b;" k="123" />
<hkern u1="&#x178;" u2="&#x3a;" k="123" />
<hkern u1="&#x178;" u2="&#x2e;" k="154" />
<hkern u1="&#x178;" u2="&#x2d;" k="133" />
<hkern u1="&#x178;" u2="&#x2c;" k="154" />
<hkern u1="&#x2018;" u2="&#xc6;" k="307" />
<hkern u1="&#x2018;" u2="&#xc5;" k="154" />
<hkern u1="&#x2018;" u2="&#xc4;" k="154" />
<hkern u1="&#x2018;" u2="W" k="-31" />
<hkern u1="&#x2018;" u2="A" k="154" />
<hkern u1="&#x2019;" u2="&#xf8;" k="61" />
<hkern u1="&#x2019;" u2="&#xf6;" k="61" />
<hkern u1="&#x2019;" u2="&#xc6;" k="307" />
<hkern u1="&#x2019;" u2="&#xc5;" k="164" />
<hkern u1="&#x2019;" u2="&#xc4;" k="164" />
<hkern u1="&#x2019;" u2="t" k="-20" />
<hkern u1="&#x2019;" u2="s" k="20" />
<hkern u1="&#x2019;" u2="o" k="61" />
<hkern u1="&#x2019;" u2="d" k="51" />
<hkern u1="&#x2019;" u2="A" k="164" />
<hkern u1="&#x2019;" u2="&#x2e;" k="82" />
<hkern u1="&#x2019;" u2="&#x2c;" k="82" />
<hkern u1="&#x201c;" u2="&#xc6;" k="297" />
<hkern u1="&#x201c;" u2="&#xc5;" k="154" />
<hkern u1="&#x201c;" u2="&#xc4;" k="154" />
<hkern u1="&#x201c;" u2="W" k="-31" />
<hkern u1="&#x201c;" u2="V" k="-20" />
<hkern u1="&#x201c;" u2="T" k="-20" />
<hkern u1="&#x201c;" u2="A" k="154" />
<hkern u1="&#x201d;" u2="&#xc6;" k="307" />
<hkern u1="&#x201d;" u2="&#xc5;" k="154" />
<hkern u1="&#x201d;" u2="&#xc4;" k="154" />
<hkern u1="&#x201d;" u2="W" k="-31" />
<hkern u1="&#x201d;" u2="T" k="-20" />
<hkern u1="&#x201d;" u2="A" k="154" />
<hkern u1="&#x201e;" u2="&#x178;" k="164" />
<hkern u1="&#x201e;" u2="&#xc5;" k="-41" />
<hkern u1="&#x201e;" u2="&#xc4;" k="-41" />
<hkern u1="&#x201e;" u2="Y" k="164" />
<hkern u1="&#x201e;" u2="W" k="102" />
<hkern u1="&#x201e;" u2="V" k="164" />
<hkern u1="&#x201e;" u2="T" k="51" />
<hkern u1="&#x201e;" u2="A" k="-41" />
<hkern u1="&#x203a;" u2="&#x178;" k="123" />
<hkern u1="&#x203a;" u2="&#xc6;" k="102" />
<hkern u1="&#x203a;" u2="&#xc5;" k="20" />
<hkern u1="&#x203a;" u2="&#xc4;" k="20" />
<hkern u1="&#x203a;" u2="Y" k="123" />
<hkern u1="&#x203a;" u2="W" k="41" />
<hkern u1="&#x203a;" u2="V" k="92" />
<hkern u1="&#x203a;" u2="T" k="51" />
<hkern u1="&#x203a;" u2="A" k="20" />
</font>
</defs></svg> 